<?xml version="1.0" encoding="utf-8"?>
<!DOCTYPE eagle SYSTEM "eagle.dtd">
<eagle version="9.6.2">
<drawing>
<settings>
<setting alwaysvectorfont="no"/>
<setting verticaltext="up"/>
</settings>
<grid distance="50" unitdist="mil" unit="mil" style="lines" multiple="1" display="no" altdistance="5" altunitdist="mil" altunit="mil"/>
<layers>
<layer number="1" name="Top" color="4" fill="1" visible="yes" active="yes"/>
<layer number="2" name="Route2" color="16" fill="1" visible="no" active="no"/>
<layer number="3" name="Route3" color="17" fill="1" visible="no" active="no"/>
<layer number="4" name="Route4" color="18" fill="1" visible="no" active="no"/>
<layer number="5" name="Route5" color="19" fill="1" visible="no" active="no"/>
<layer number="6" name="Route6" color="25" fill="1" visible="no" active="no"/>
<layer number="7" name="Route7" color="26" fill="1" visible="no" active="no"/>
<layer number="8" name="Route8" color="27" fill="1" visible="no" active="no"/>
<layer number="9" name="Route9" color="28" fill="1" visible="no" active="no"/>
<layer number="10" name="Route10" color="29" fill="1" visible="no" active="no"/>
<layer number="11" name="Route11" color="30" fill="1" visible="no" active="no"/>
<layer number="12" name="Route12" color="20" fill="1" visible="no" active="no"/>
<layer number="13" name="Route13" color="21" fill="1" visible="no" active="no"/>
<layer number="14" name="Route14" color="22" fill="1" visible="no" active="no"/>
<layer number="15" name="Route15" color="23" fill="1" visible="no" active="no"/>
<layer number="16" name="Bottom" color="1" fill="1" visible="yes" active="yes"/>
<layer number="17" name="Pads" color="2" fill="1" visible="yes" active="yes"/>
<layer number="18" name="Vias" color="2" fill="1" visible="yes" active="yes"/>
<layer number="19" name="Unrouted" color="6" fill="1" visible="yes" active="yes"/>
<layer number="20" name="Dimension" color="24" fill="1" visible="yes" active="yes"/>
<layer number="21" name="tPlace" color="7" fill="1" visible="yes" active="yes"/>
<layer number="22" name="bPlace" color="7" fill="1" visible="yes" active="yes"/>
<layer number="23" name="tOrigins" color="15" fill="1" visible="yes" active="yes"/>
<layer number="24" name="bOrigins" color="15" fill="1" visible="yes" active="yes"/>
<layer number="25" name="tNames" color="7" fill="1" visible="yes" active="yes"/>
<layer number="26" name="bNames" color="7" fill="1" visible="yes" active="yes"/>
<layer number="27" name="tValues" color="7" fill="1" visible="yes" active="yes"/>
<layer number="28" name="bValues" color="7" fill="1" visible="yes" active="yes"/>
<layer number="29" name="tStop" color="7" fill="3" visible="no" active="yes"/>
<layer number="30" name="bStop" color="7" fill="6" visible="no" active="yes"/>
<layer number="31" name="tCream" color="7" fill="4" visible="no" active="yes"/>
<layer number="32" name="bCream" color="7" fill="5" visible="no" active="yes"/>
<layer number="33" name="tFinish" color="6" fill="3" visible="no" active="yes"/>
<layer number="34" name="bFinish" color="6" fill="6" visible="no" active="yes"/>
<layer number="35" name="tGlue" color="7" fill="4" visible="no" active="yes"/>
<layer number="36" name="bGlue" color="7" fill="5" visible="no" active="yes"/>
<layer number="37" name="tTest" color="7" fill="1" visible="no" active="yes"/>
<layer number="38" name="bTest" color="7" fill="1" visible="no" active="yes"/>
<layer number="39" name="tKeepout" color="4" fill="11" visible="yes" active="yes"/>
<layer number="40" name="bKeepout" color="1" fill="11" visible="yes" active="yes"/>
<layer number="41" name="tRestrict" color="4" fill="10" visible="yes" active="yes"/>
<layer number="42" name="bRestrict" color="1" fill="10" visible="yes" active="yes"/>
<layer number="43" name="vRestrict" color="2" fill="10" visible="yes" active="yes"/>
<layer number="44" name="Drills" color="7" fill="1" visible="no" active="yes"/>
<layer number="45" name="Holes" color="7" fill="1" visible="no" active="yes"/>
<layer number="46" name="Milling" color="3" fill="1" visible="no" active="yes"/>
<layer number="47" name="Measures" color="7" fill="1" visible="no" active="yes"/>
<layer number="48" name="Document" color="7" fill="1" visible="yes" active="yes"/>
<layer number="49" name="Reference" color="7" fill="1" visible="yes" active="yes"/>
<layer number="50" name="dxf" color="7" fill="1" visible="no" active="no"/>
<layer number="51" name="tDocu" color="7" fill="1" visible="yes" active="yes"/>
<layer number="52" name="bDocu" color="7" fill="1" visible="yes" active="yes"/>
<layer number="53" name="tGND_GNDA" color="7" fill="9" visible="no" active="no"/>
<layer number="54" name="bGND_GNDA" color="1" fill="9" visible="no" active="no"/>
<layer number="56" name="wert" color="7" fill="1" visible="no" active="no"/>
<layer number="57" name="tCAD" color="7" fill="1" visible="no" active="no"/>
<layer number="59" name="tCarbon" color="7" fill="1" visible="no" active="no"/>
<layer number="60" name="bCarbon" color="7" fill="1" visible="no" active="no"/>
<layer number="88" name="SimResults" color="9" fill="1" visible="no" active="no"/>
<layer number="89" name="SimProbes" color="9" fill="1" visible="no" active="no"/>
<layer number="90" name="Modules" color="5" fill="1" visible="no" active="no"/>
<layer number="91" name="Nets" color="2" fill="1" visible="no" active="no"/>
<layer number="92" name="Busses" color="1" fill="1" visible="no" active="no"/>
<layer number="93" name="Pins" color="2" fill="1" visible="no" active="no"/>
<layer number="94" name="Symbols" color="4" fill="1" visible="no" active="no"/>
<layer number="95" name="Names" color="7" fill="1" visible="no" active="no"/>
<layer number="96" name="Values" color="7" fill="1" visible="no" active="no"/>
<layer number="97" name="Info" color="7" fill="1" visible="no" active="no"/>
<layer number="98" name="Guide" color="6" fill="1" visible="no" active="no"/>
<layer number="99" name="SpiceOrder" color="7" fill="1" visible="no" active="no"/>
<layer number="100" name="Muster" color="7" fill="1" visible="no" active="no"/>
<layer number="101" name="Patch_Top" color="12" fill="4" visible="yes" active="yes"/>
<layer number="102" name="Vscore" color="7" fill="1" visible="yes" active="yes"/>
<layer number="103" name="tMap" color="7" fill="1" visible="yes" active="yes"/>
<layer number="104" name="Name" color="16" fill="1" visible="yes" active="yes"/>
<layer number="105" name="tPlate" color="7" fill="1" visible="yes" active="yes"/>
<layer number="106" name="bPlate" color="7" fill="1" visible="yes" active="yes"/>
<layer number="107" name="Crop" color="7" fill="1" visible="yes" active="yes"/>
<layer number="108" name="tplace-old" color="10" fill="1" visible="yes" active="yes"/>
<layer number="109" name="ref-old" color="11" fill="1" visible="yes" active="yes"/>
<layer number="110" name="fp0" color="7" fill="1" visible="yes" active="yes"/>
<layer number="111" name="LPC17xx" color="7" fill="1" visible="yes" active="yes"/>
<layer number="112" name="tSilk" color="7" fill="1" visible="yes" active="yes"/>
<layer number="113" name="IDFDebug" color="4" fill="1" visible="yes" active="yes"/>
<layer number="114" name="Badge_Outline" color="7" fill="1" visible="yes" active="yes"/>
<layer number="115" name="ReferenceISLANDS" color="7" fill="1" visible="yes" active="yes"/>
<layer number="116" name="Patch_BOT" color="9" fill="4" visible="yes" active="yes"/>
<layer number="118" name="Rect_Pads" color="7" fill="1" visible="yes" active="yes"/>
<layer number="121" name="_tsilk" color="7" fill="1" visible="yes" active="yes"/>
<layer number="122" name="_bsilk" color="7" fill="1" visible="yes" active="yes"/>
<layer number="123" name="tTestmark" color="7" fill="1" visible="yes" active="yes"/>
<layer number="124" name="bTestmark" color="7" fill="1" visible="yes" active="yes"/>
<layer number="125" name="_tNames" color="7" fill="1" visible="yes" active="yes"/>
<layer number="126" name="_bNames" color="7" fill="1" visible="yes" active="yes"/>
<layer number="127" name="_tValues" color="7" fill="1" visible="yes" active="yes"/>
<layer number="128" name="_bValues" color="7" fill="1" visible="yes" active="yes"/>
<layer number="129" name="Mask" color="7" fill="1" visible="yes" active="yes"/>
<layer number="131" name="tAdjust" color="7" fill="1" visible="yes" active="yes"/>
<layer number="132" name="bAdjust" color="7" fill="1" visible="yes" active="yes"/>
<layer number="144" name="Drill_legend" color="7" fill="1" visible="yes" active="yes"/>
<layer number="150" name="Notes" color="7" fill="1" visible="yes" active="yes"/>
<layer number="151" name="HeatSink" color="7" fill="1" visible="yes" active="yes"/>
<layer number="152" name="_bDocu" color="7" fill="1" visible="yes" active="yes"/>
<layer number="153" name="FabDoc1" color="7" fill="1" visible="yes" active="yes"/>
<layer number="154" name="FabDoc2" color="7" fill="1" visible="yes" active="yes"/>
<layer number="155" name="FabDoc3" color="7" fill="1" visible="yes" active="yes"/>
<layer number="199" name="Contour" color="7" fill="1" visible="yes" active="yes"/>
<layer number="200" name="200bmp" color="1" fill="10" visible="yes" active="yes"/>
<layer number="201" name="201bmp" color="2" fill="10" visible="yes" active="yes"/>
<layer number="202" name="202bmp" color="3" fill="10" visible="yes" active="yes"/>
<layer number="203" name="203bmp" color="4" fill="10" visible="yes" active="yes"/>
<layer number="204" name="204bmp" color="5" fill="10" visible="yes" active="yes"/>
<layer number="205" name="205bmp" color="6" fill="10" visible="yes" active="yes"/>
<layer number="206" name="206bmp" color="7" fill="10" visible="yes" active="yes"/>
<layer number="207" name="207bmp" color="8" fill="10" visible="yes" active="yes"/>
<layer number="208" name="208bmp" color="9" fill="10" visible="yes" active="yes"/>
<layer number="209" name="209bmp" color="7" fill="1" visible="yes" active="yes"/>
<layer number="210" name="210bmp" color="7" fill="1" visible="yes" active="yes"/>
<layer number="211" name="211bmp" color="7" fill="1" visible="yes" active="yes"/>
<layer number="212" name="212bmp" color="7" fill="1" visible="yes" active="yes"/>
<layer number="213" name="213bmp" color="7" fill="1" visible="yes" active="yes"/>
<layer number="214" name="214bmp" color="7" fill="1" visible="yes" active="yes"/>
<layer number="215" name="215bmp" color="7" fill="1" visible="yes" active="yes"/>
<layer number="216" name="216bmp" color="7" fill="1" visible="yes" active="yes"/>
<layer number="217" name="217bmp" color="18" fill="1" visible="no" active="no"/>
<layer number="218" name="218bmp" color="19" fill="1" visible="no" active="no"/>
<layer number="219" name="219bmp" color="20" fill="1" visible="no" active="no"/>
<layer number="220" name="220bmp" color="21" fill="1" visible="no" active="no"/>
<layer number="221" name="221bmp" color="22" fill="1" visible="no" active="no"/>
<layer number="222" name="222bmp" color="23" fill="1" visible="no" active="no"/>
<layer number="223" name="223bmp" color="24" fill="1" visible="no" active="no"/>
<layer number="224" name="224bmp" color="25" fill="1" visible="no" active="no"/>
<layer number="225" name="225bmp" color="7" fill="1" visible="yes" active="yes"/>
<layer number="226" name="226bmp" color="7" fill="1" visible="yes" active="yes"/>
<layer number="227" name="227bmp" color="7" fill="1" visible="yes" active="yes"/>
<layer number="228" name="228bmp" color="7" fill="1" visible="yes" active="yes"/>
<layer number="229" name="229bmp" color="7" fill="1" visible="yes" active="yes"/>
<layer number="230" name="230bmp" color="7" fill="1" visible="yes" active="yes"/>
<layer number="231" name="231bmp" color="7" fill="1" visible="yes" active="yes"/>
<layer number="232" name="Eagle3D_PG2" color="7" fill="1" visible="no" active="no"/>
<layer number="233" name="Eagle3D_PG3" color="7" fill="1" visible="no" active="no"/>
<layer number="248" name="Housing" color="7" fill="1" visible="yes" active="yes"/>
<layer number="249" name="Edge" color="7" fill="1" visible="yes" active="yes"/>
<layer number="250" name="Descript" color="3" fill="1" visible="no" active="no"/>
<layer number="251" name="SMDround" color="12" fill="11" visible="no" active="no"/>
<layer number="254" name="cooling" color="7" fill="1" visible="yes" active="yes"/>
<layer number="255" name="routoute" color="7" fill="1" visible="yes" active="yes"/>
</layers>
<board>
<plain>
<wire x1="0" y1="0" x2="160" y2="0" width="0" layer="20"/>
<wire x1="160" y1="0" x2="160" y2="100" width="0" layer="20"/>
<wire x1="160" y1="100" x2="0" y2="100" width="0" layer="20"/>
<wire x1="0" y1="100" x2="0" y2="0" width="0" layer="20"/>
</plain>
<libraries>
<library name="DRV8825_STEPPER_MOTOR_DRIVER_CARRIER">
<packages>
<package name="IC_DRV8825_STEPPER_MOTOR_DRIVER_CARRIER">
<wire x1="-7.62" y1="10.16" x2="7.62" y2="10.16" width="0.127" layer="51"/>
<wire x1="7.62" y1="10.16" x2="7.62" y2="-10.16" width="0.127" layer="51"/>
<wire x1="7.62" y1="-10.16" x2="-7.62" y2="-10.16" width="0.127" layer="51"/>
<wire x1="-7.62" y1="-10.16" x2="-7.62" y2="10.16" width="0.127" layer="51"/>
<wire x1="-7.62" y1="10.16" x2="7.62" y2="10.16" width="0.127" layer="21"/>
<wire x1="-7.62" y1="-10.16" x2="-7.62" y2="10.16" width="0.127" layer="21"/>
<wire x1="7.62" y1="10.16" x2="7.62" y2="-10.16" width="0.127" layer="21"/>
<wire x1="7.62" y1="-10.16" x2="-7.62" y2="-10.16" width="0.127" layer="21"/>
<wire x1="-7.87" y1="10.41" x2="7.87" y2="10.41" width="0.05" layer="39"/>
<wire x1="7.87" y1="10.41" x2="7.87" y2="-10.41" width="0.05" layer="39"/>
<wire x1="7.87" y1="-10.41" x2="-7.87" y2="-10.41" width="0.05" layer="39"/>
<wire x1="-7.87" y1="-10.41" x2="-7.87" y2="10.41" width="0.05" layer="39"/>
<circle x="-8.6" y="9" radius="0.1" width="0.2" layer="21"/>
<circle x="-8.6" y="9" radius="0.1" width="0.2" layer="51"/>
<text x="-7.62" y="11.43" size="1.27" layer="25">&gt;NAME</text>
<text x="-7.62" y="-12.7" size="1.27" layer="27">&gt;VALUE</text>
<pad name="4" x="-6.35" y="1.27" drill="1.1"/>
<pad name="13" x="6.35" y="1.27" drill="1.1"/>
<pad name="5" x="-6.35" y="-1.27" drill="1.1"/>
<pad name="6" x="-6.35" y="-3.81" drill="1.1"/>
<pad name="7" x="-6.35" y="-6.35" drill="1.1"/>
<pad name="8" x="-6.35" y="-8.89" drill="1.1"/>
<pad name="3" x="-6.35" y="3.81" drill="1.1"/>
<pad name="2" x="-6.35" y="6.35" drill="1.1"/>
<pad name="1" x="-6.35" y="8.89" drill="1.1" shape="square"/>
<pad name="14" x="6.35" y="3.81" drill="1.1"/>
<pad name="15" x="6.35" y="6.35" drill="1.1"/>
<pad name="16" x="6.35" y="8.89" drill="1.1"/>
<pad name="12" x="6.35" y="-1.27" drill="1.1"/>
<pad name="11" x="6.35" y="-3.81" drill="1.1"/>
<pad name="10" x="6.35" y="-6.35" drill="1.1"/>
<pad name="9" x="6.35" y="-8.89" drill="1.1"/>
</package>
</packages>
</library>
<library name="SparkFun-Connectors">
<description>&lt;h3&gt;SparkFun Connectors&lt;/h3&gt;
This library contains electrically-functional connectors. 
&lt;br&gt;
&lt;br&gt;
We've spent an enormous amount of time creating and checking these footprints and parts, but it is &lt;b&gt; the end user's responsibility&lt;/b&gt; to ensure correctness and suitablity for a given componet or application. 
&lt;br&gt;
&lt;br&gt;If you enjoy using this library, please buy one of our products at &lt;a href=" www.sparkfun.com"&gt;SparkFun.com&lt;/a&gt;.
&lt;br&gt;
&lt;br&gt;
&lt;b&gt;Licensing:&lt;/b&gt; Creative Commons ShareAlike 4.0 International - https://creativecommons.org/licenses/by-sa/4.0/ 
&lt;br&gt;
&lt;br&gt;
You are welcome to use this library for commercial purposes. For attribution, we ask that when you begin to sell your device using our footprint, you email us with a link to the product being sold. We want bragging rights that we helped (in a very small part) to create your 8th world wonder. We would like the opportunity to feature your device on our homepage.</description>
<packages>
<package name="2X3">
<description>&lt;h3&gt;Plated Through Hole - 2x3&lt;/h3&gt;
&lt;p&gt;Specifications:
&lt;ul&gt;&lt;li&gt;Pin count:6&lt;/li&gt;
&lt;li&gt;Pin pitch:0.1"&lt;/li&gt;
&lt;/ul&gt;&lt;/p&gt;
&lt;p&gt;Example device(s):
&lt;ul&gt;&lt;li&gt;CONN_03x2&lt;/li&gt;
&lt;/ul&gt;&lt;/p&gt;</description>
<wire x1="-1.27" y1="-0.635" x2="-0.635" y2="-1.27" width="0.2032" layer="21"/>
<wire x1="0.635" y1="-1.27" x2="1.27" y2="-0.635" width="0.2032" layer="21"/>
<wire x1="1.27" y1="-0.635" x2="1.905" y2="-1.27" width="0.2032" layer="21"/>
<wire x1="3.175" y1="-1.27" x2="3.81" y2="-0.635" width="0.2032" layer="21"/>
<wire x1="3.81" y1="-0.635" x2="4.445" y2="-1.27" width="0.2032" layer="21"/>
<wire x1="5.715" y1="-1.27" x2="6.35" y2="-0.635" width="0.2032" layer="21"/>
<wire x1="-1.27" y1="-0.635" x2="-1.27" y2="3.175" width="0.2032" layer="21"/>
<wire x1="-1.27" y1="3.175" x2="-0.635" y2="3.81" width="0.2032" layer="21"/>
<wire x1="-0.635" y1="3.81" x2="0.635" y2="3.81" width="0.2032" layer="21"/>
<wire x1="0.635" y1="3.81" x2="1.27" y2="3.175" width="0.2032" layer="21"/>
<wire x1="1.27" y1="3.175" x2="1.905" y2="3.81" width="0.2032" layer="21"/>
<wire x1="1.905" y1="3.81" x2="3.175" y2="3.81" width="0.2032" layer="21"/>
<wire x1="3.175" y1="3.81" x2="3.81" y2="3.175" width="0.2032" layer="21"/>
<wire x1="3.81" y1="3.175" x2="4.445" y2="3.81" width="0.2032" layer="21"/>
<wire x1="4.445" y1="3.81" x2="5.715" y2="3.81" width="0.2032" layer="21"/>
<wire x1="5.715" y1="3.81" x2="6.35" y2="3.175" width="0.2032" layer="21"/>
<wire x1="1.27" y1="3.175" x2="1.27" y2="-0.635" width="0.2032" layer="21"/>
<wire x1="3.81" y1="3.175" x2="3.81" y2="-0.635" width="0.2032" layer="21"/>
<wire x1="6.35" y1="3.175" x2="6.35" y2="-0.635" width="0.2032" layer="21"/>
<wire x1="4.445" y1="-1.27" x2="5.715" y2="-1.27" width="0.2032" layer="21"/>
<wire x1="1.905" y1="-1.27" x2="3.175" y2="-1.27" width="0.2032" layer="21"/>
<wire x1="-0.635" y1="-1.27" x2="0.635" y2="-1.27" width="0.2032" layer="21"/>
<wire x1="0.635" y1="-1.605" x2="-0.635" y2="-1.605" width="0.2032" layer="21"/>
<pad name="1" x="0" y="0" drill="1.016" diameter="1.8796"/>
<pad name="2" x="0" y="2.54" drill="1.016" diameter="1.8796"/>
<pad name="3" x="2.54" y="0" drill="1.016" diameter="1.8796"/>
<pad name="4" x="2.54" y="2.54" drill="1.016" diameter="1.8796"/>
<pad name="5" x="5.08" y="0" drill="1.016" diameter="1.8796"/>
<pad name="6" x="5.08" y="2.54" drill="1.016" diameter="1.8796"/>
<text x="-1.27" y="4.064" size="0.6096" layer="25" font="vector" ratio="20">&gt;NAME</text>
<text x="-1.27" y="-2.413" size="0.6096" layer="27" font="vector" ratio="20">&gt;VALUE</text>
<rectangle x1="-0.254" y1="-0.254" x2="0.254" y2="0.254" layer="51"/>
<rectangle x1="-0.254" y1="2.286" x2="0.254" y2="2.794" layer="51"/>
<rectangle x1="2.286" y1="2.286" x2="2.794" y2="2.794" layer="51"/>
<rectangle x1="2.286" y1="-0.254" x2="2.794" y2="0.254" layer="51"/>
<rectangle x1="4.826" y1="2.286" x2="5.334" y2="2.794" layer="51"/>
<rectangle x1="4.826" y1="-0.254" x2="5.334" y2="0.254" layer="51"/>
<wire x1="-0.635" y1="-1.605" x2="0.635" y2="-1.605" width="0.2032" layer="22"/>
</package>
</packages>
</library>
<library name="atmel_tiny24-44-84tiny48-88mega48-88-168-328">
<description>Atmel MCUs:

&lt;p&gt;&lt;b&gt;ATmega48/88/168/328&lt;/b&gt; in variants AU, MU, PU
&lt;p&gt;&lt;b&gt;ATtiny24/44/84&lt;/b&gt; in variants SSU, PU, MU
&lt;p&gt;&lt;b&gt;ATtiny48/88&lt;/b&gt; in variants AU, MU, MMU, MMH, PU
&lt;p&gt;&lt;b&gt;AT89C51/52/...&lt;/b&gt;
&lt;p&gt;&lt;b&gt;AT89C1051/2052/4052&lt;/b&gt;

&lt;i&gt;&lt;p&gt;&lt;author&gt;Created by Ing. Miroslav Kovar @ soft&lt;/author&gt;</description>
<packages>
<package name="TQFP32-08">
<description>&lt;b&gt;32A&lt;/b&gt;, 32-lead, 7 x 7 mm Body Size, 1.0 mm Body Thickness, 0.8 mm Lead Pitch, Thin Profile Plastic Quad Flat Package (TQFP)
&lt;p&gt;Atmel</description>
<wire x1="3.505" y1="3.505" x2="3.505" y2="-3.505" width="0.2" layer="21"/>
<wire x1="3.505" y1="-3.505" x2="-3.505" y2="-3.505" width="0.2" layer="21"/>
<wire x1="-3.505" y1="-3.505" x2="-3.505" y2="3.15" width="0.2" layer="21"/>
<wire x1="-3.15" y1="3.505" x2="3.505" y2="3.505" width="0.2" layer="21"/>
<wire x1="-3.15" y1="3.505" x2="-3.505" y2="3.15" width="0.2" layer="21"/>
<circle x="-2.7432" y="2.7432" radius="0.3592" width="0.1524" layer="21"/>
<smd name="1" x="-4.2926" y="2.8" dx="1.27" dy="0.55" layer="1" roundness="100"/>
<smd name="2" x="-4.2926" y="2" dx="1.27" dy="0.55" layer="1"/>
<smd name="3" x="-4.2926" y="1.2" dx="1.27" dy="0.55" layer="1"/>
<smd name="4" x="-4.2926" y="0.4" dx="1.27" dy="0.55" layer="1"/>
<smd name="5" x="-4.2926" y="-0.4" dx="1.27" dy="0.55" layer="1"/>
<smd name="6" x="-4.2926" y="-1.2" dx="1.27" dy="0.55" layer="1"/>
<smd name="7" x="-4.2926" y="-2" dx="1.27" dy="0.55" layer="1"/>
<smd name="8" x="-4.2926" y="-2.8" dx="1.27" dy="0.55" layer="1"/>
<smd name="9" x="-2.8" y="-4.2926" dx="1.27" dy="0.55" layer="1" rot="R90"/>
<smd name="10" x="-2" y="-4.2926" dx="1.27" dy="0.55" layer="1" rot="R90"/>
<smd name="11" x="-1.2" y="-4.2926" dx="1.27" dy="0.55" layer="1" rot="R90"/>
<smd name="12" x="-0.4" y="-4.2926" dx="1.27" dy="0.55" layer="1" rot="R90"/>
<smd name="13" x="0.4" y="-4.2926" dx="1.27" dy="0.55" layer="1" rot="R90"/>
<smd name="14" x="1.2" y="-4.2926" dx="1.27" dy="0.55" layer="1" rot="R90"/>
<smd name="15" x="2" y="-4.2926" dx="1.27" dy="0.55" layer="1" rot="R90"/>
<smd name="16" x="2.8" y="-4.2926" dx="1.27" dy="0.55" layer="1" rot="R90"/>
<smd name="17" x="4.2926" y="-2.8" dx="1.27" dy="0.55" layer="1" rot="R180"/>
<smd name="18" x="4.2926" y="-2" dx="1.27" dy="0.55" layer="1" rot="R180"/>
<smd name="19" x="4.2926" y="-1.2" dx="1.27" dy="0.55" layer="1" rot="R180"/>
<smd name="20" x="4.2926" y="-0.4" dx="1.27" dy="0.55" layer="1" rot="R180"/>
<smd name="21" x="4.2926" y="0.4" dx="1.27" dy="0.55" layer="1" rot="R180"/>
<smd name="22" x="4.2926" y="1.2" dx="1.27" dy="0.55" layer="1" rot="R180"/>
<smd name="23" x="4.2926" y="2" dx="1.27" dy="0.55" layer="1" rot="R180"/>
<smd name="24" x="4.2926" y="2.8" dx="1.27" dy="0.55" layer="1" rot="R180"/>
<smd name="25" x="2.8" y="4.2926" dx="1.27" dy="0.55" layer="1" rot="R270"/>
<smd name="26" x="2" y="4.2926" dx="1.27" dy="0.55" layer="1" rot="R270"/>
<smd name="27" x="1.2" y="4.2926" dx="1.27" dy="0.55" layer="1" rot="R270"/>
<smd name="28" x="0.4" y="4.2926" dx="1.27" dy="0.55" layer="1" rot="R270"/>
<smd name="29" x="-0.4" y="4.2926" dx="1.27" dy="0.55" layer="1" rot="R270"/>
<smd name="30" x="-1.2" y="4.2926" dx="1.27" dy="0.55" layer="1" rot="R270"/>
<smd name="31" x="-2" y="4.2926" dx="1.27" dy="0.55" layer="1" rot="R270"/>
<smd name="32" x="-2.8" y="4.2926" dx="1.27" dy="0.55" layer="1" rot="R270"/>
<text x="-3.0861" y="-2.06375" size="0.8128" layer="25">&gt;NAME</text>
<text x="-3.0226" y="-3.175" size="0.8128" layer="27">&gt;VALUE</text>
<text x="-5.3975" y="-3.175" size="1.27" layer="201" font="vector" ratio="12" rot="R90">&gt;NAME</text>
<circle x="-2.75" y="2.75" radius="0.3" width="0.15" layer="51"/>
<rectangle x1="-4.5466" y1="2.5714" x2="-3.556" y2="3.0286" layer="21"/>
<rectangle x1="-4.5466" y1="1.7714" x2="-3.556" y2="2.2286" layer="21"/>
<rectangle x1="-4.5466" y1="0.9714" x2="-3.556" y2="1.4286" layer="21"/>
<rectangle x1="-4.5466" y1="0.1714" x2="-3.556" y2="0.6286" layer="21"/>
<rectangle x1="-4.5466" y1="-0.6286" x2="-3.556" y2="-0.1714" layer="21"/>
<rectangle x1="-4.5466" y1="-1.4286" x2="-3.556" y2="-0.9714" layer="21"/>
<rectangle x1="-4.5466" y1="-2.2286" x2="-3.556" y2="-1.7714" layer="21"/>
<rectangle x1="-4.5466" y1="-3.0286" x2="-3.556" y2="-2.5714" layer="21"/>
<rectangle x1="-3.0286" y1="-4.5466" x2="-2.5714" y2="-3.556" layer="21"/>
<rectangle x1="-2.2286" y1="-4.5466" x2="-1.7714" y2="-3.556" layer="21"/>
<rectangle x1="-1.4286" y1="-4.5466" x2="-0.9714" y2="-3.556" layer="21"/>
<rectangle x1="-0.6286" y1="-4.5466" x2="-0.1714" y2="-3.556" layer="21"/>
<rectangle x1="0.1714" y1="-4.5466" x2="0.6286" y2="-3.556" layer="21"/>
<rectangle x1="0.9714" y1="-4.5466" x2="1.4286" y2="-3.556" layer="21"/>
<rectangle x1="1.7714" y1="-4.5466" x2="2.2286" y2="-3.556" layer="21"/>
<rectangle x1="2.5714" y1="-4.5466" x2="3.0286" y2="-3.556" layer="21"/>
<rectangle x1="3.556" y1="-3.0286" x2="4.5466" y2="-2.5714" layer="21"/>
<rectangle x1="3.556" y1="-2.2286" x2="4.5466" y2="-1.7714" layer="21"/>
<rectangle x1="3.556" y1="-1.4286" x2="4.5466" y2="-0.9714" layer="21"/>
<rectangle x1="3.556" y1="-0.6286" x2="4.5466" y2="-0.1714" layer="21"/>
<rectangle x1="3.556" y1="0.1714" x2="4.5466" y2="0.6286" layer="21"/>
<rectangle x1="3.556" y1="0.9714" x2="4.5466" y2="1.4286" layer="21"/>
<rectangle x1="3.556" y1="1.7714" x2="4.5466" y2="2.2286" layer="21"/>
<rectangle x1="3.556" y1="2.5714" x2="4.5466" y2="3.0286" layer="21"/>
<rectangle x1="2.5714" y1="3.556" x2="3.0286" y2="4.5466" layer="21"/>
<rectangle x1="1.7714" y1="3.556" x2="2.2286" y2="4.5466" layer="21"/>
<rectangle x1="0.9714" y1="3.556" x2="1.4286" y2="4.5466" layer="21"/>
<rectangle x1="0.1714" y1="3.556" x2="0.6286" y2="4.5466" layer="21"/>
<rectangle x1="-0.6286" y1="3.556" x2="-0.1714" y2="4.5466" layer="21"/>
<rectangle x1="-1.4286" y1="3.556" x2="-0.9714" y2="4.5466" layer="21"/>
<rectangle x1="-2.2286" y1="3.556" x2="-1.7714" y2="4.5466" layer="21"/>
<rectangle x1="-3.0286" y1="3.556" x2="-2.5714" y2="4.5466" layer="21"/>
</package>
</packages>
</library>
<library name="Clean-Kong">
<description>Library redesigned with larger pads for easy manual soldering and lots of added components as connectors, boards for DIY arduino projects (HX711, ADXL, switch, buzzer, oled, etc)</description>
<packages>
<package name="C0805">
<description>&lt;b&gt;CAPACITOR&lt;/b&gt;&lt;p&gt;</description>
<wire x1="-1.973" y1="0.983" x2="1.973" y2="0.983" width="0.0508" layer="39"/>
<wire x1="1.973" y1="-0.983" x2="-1.973" y2="-0.983" width="0.0508" layer="39"/>
<wire x1="-1.973" y1="-0.983" x2="-1.973" y2="0.983" width="0.0508" layer="39"/>
<wire x1="-0.381" y1="0.66" x2="0.381" y2="0.66" width="0.1016" layer="51"/>
<wire x1="-0.356" y1="-0.66" x2="0.381" y2="-0.66" width="0.1016" layer="51"/>
<wire x1="1.973" y1="0.983" x2="1.973" y2="-0.983" width="0.0508" layer="39"/>
<smd name="1" x="-0.95" y="0" dx="1.3" dy="1.5" layer="1"/>
<smd name="2" x="0.95" y="0" dx="1.3" dy="1.5" layer="1"/>
<text x="-1.27" y="1.27" size="1.27" layer="25">&gt;NAME</text>
<text x="-1.27" y="-2.54" size="1.27" layer="27">&gt;VALUE</text>
<rectangle x1="-1.0922" y1="-0.7239" x2="-0.3421" y2="0.7262" layer="51"/>
<rectangle x1="0.3556" y1="-0.7239" x2="1.1057" y2="0.7262" layer="51"/>
<rectangle x1="-0.1001" y1="-0.4001" x2="0.1001" y2="0.4001" layer="35"/>
</package>
</packages>
</library>
<library name="adafruit">
<packages>
<package name="NX3225">
<wire x1="-1.6" y1="1.2" x2="-1.6" y2="-1.2" width="0.127" layer="21"/>
<wire x1="-1.6" y1="-1.2" x2="1.6" y2="-1.2" width="0.127" layer="21"/>
<wire x1="1.6" y1="-1.2" x2="1.6" y2="1.2" width="0.127" layer="21"/>
<wire x1="1.6" y1="1.2" x2="-1.6" y2="1.2" width="0.127" layer="21"/>
<wire x1="-1.4" y1="0.6825" x2="-1.0825" y2="1" width="0.127" layer="21" curve="-90"/>
<wire x1="-1.0825" y1="1" x2="1.0825" y2="1" width="0.127" layer="21"/>
<wire x1="1.0825" y1="1" x2="1.4" y2="0.6825" width="0.127" layer="21" curve="-90"/>
<wire x1="1.4" y1="0.6825" x2="1.4" y2="-0.6825" width="0.127" layer="21"/>
<wire x1="1.4" y1="-0.6825" x2="1.0825" y2="-1" width="0.127" layer="21" curve="-90"/>
<wire x1="1.0825" y1="-1" x2="-1.0825" y2="-1" width="0.127" layer="21"/>
<wire x1="-1.0825" y1="-1" x2="-1.4" y2="-0.6825" width="0.127" layer="21" curve="-90"/>
<wire x1="-1.4" y1="-0.6825" x2="-1.4" y2="0.6825" width="0.127" layer="21"/>
<smd name="4" x="-1.1" y="0.8" dx="1.2" dy="1.4" layer="1" rot="R90"/>
<smd name="1" x="-1.1" y="-0.8" dx="1.2" dy="1.4" layer="1" rot="R90"/>
<smd name="2" x="1.1" y="-0.8" dx="1.2" dy="1.4" layer="1" rot="R90"/>
<smd name="3" x="1.1" y="0.8" dx="1.2" dy="1.4" layer="1" rot="R90"/>
</package>
<package name="1X06">
<description>&lt;b&gt;PIN HEADER&lt;/b&gt;</description>
<wire x1="0.635" y1="1.27" x2="1.905" y2="1.27" width="0.1524" layer="21"/>
<wire x1="1.905" y1="1.27" x2="2.54" y2="0.635" width="0.1524" layer="21"/>
<wire x1="2.54" y1="0.635" x2="2.54" y2="-0.635" width="0.1524" layer="21"/>
<wire x1="2.54" y1="-0.635" x2="1.905" y2="-1.27" width="0.1524" layer="21"/>
<wire x1="2.54" y1="0.635" x2="3.175" y2="1.27" width="0.1524" layer="21"/>
<wire x1="3.175" y1="1.27" x2="4.445" y2="1.27" width="0.1524" layer="21"/>
<wire x1="4.445" y1="1.27" x2="5.08" y2="0.635" width="0.1524" layer="21"/>
<wire x1="5.08" y1="0.635" x2="5.08" y2="-0.635" width="0.1524" layer="21"/>
<wire x1="5.08" y1="-0.635" x2="4.445" y2="-1.27" width="0.1524" layer="21"/>
<wire x1="4.445" y1="-1.27" x2="3.175" y2="-1.27" width="0.1524" layer="21"/>
<wire x1="3.175" y1="-1.27" x2="2.54" y2="-0.635" width="0.1524" layer="21"/>
<wire x1="-2.54" y1="0.635" x2="-1.905" y2="1.27" width="0.1524" layer="21"/>
<wire x1="-1.905" y1="1.27" x2="-0.635" y2="1.27" width="0.1524" layer="21"/>
<wire x1="-0.635" y1="1.27" x2="0" y2="0.635" width="0.1524" layer="21"/>
<wire x1="0" y1="0.635" x2="0" y2="-0.635" width="0.1524" layer="21"/>
<wire x1="0" y1="-0.635" x2="-0.635" y2="-1.27" width="0.1524" layer="21"/>
<wire x1="-0.635" y1="-1.27" x2="-1.905" y2="-1.27" width="0.1524" layer="21"/>
<wire x1="-1.905" y1="-1.27" x2="-2.54" y2="-0.635" width="0.1524" layer="21"/>
<wire x1="0.635" y1="1.27" x2="0" y2="0.635" width="0.1524" layer="21"/>
<wire x1="0" y1="-0.635" x2="0.635" y2="-1.27" width="0.1524" layer="21"/>
<wire x1="1.905" y1="-1.27" x2="0.635" y2="-1.27" width="0.1524" layer="21"/>
<wire x1="-6.985" y1="1.27" x2="-5.715" y2="1.27" width="0.1524" layer="21"/>
<wire x1="-5.715" y1="1.27" x2="-5.08" y2="0.635" width="0.1524" layer="21"/>
<wire x1="-5.08" y1="0.635" x2="-5.08" y2="-0.635" width="0.1524" layer="21"/>
<wire x1="-5.08" y1="-0.635" x2="-5.715" y2="-1.27" width="0.1524" layer="21"/>
<wire x1="-5.08" y1="0.635" x2="-4.445" y2="1.27" width="0.1524" layer="21"/>
<wire x1="-4.445" y1="1.27" x2="-3.175" y2="1.27" width="0.1524" layer="21"/>
<wire x1="-3.175" y1="1.27" x2="-2.54" y2="0.635" width="0.1524" layer="21"/>
<wire x1="-2.54" y1="0.635" x2="-2.54" y2="-0.635" width="0.1524" layer="21"/>
<wire x1="-2.54" y1="-0.635" x2="-3.175" y2="-1.27" width="0.1524" layer="21"/>
<wire x1="-3.175" y1="-1.27" x2="-4.445" y2="-1.27" width="0.1524" layer="21"/>
<wire x1="-4.445" y1="-1.27" x2="-5.08" y2="-0.635" width="0.1524" layer="21"/>
<wire x1="-7.62" y1="0.635" x2="-7.62" y2="-0.635" width="0.1524" layer="21"/>
<wire x1="-6.985" y1="1.27" x2="-7.62" y2="0.635" width="0.1524" layer="21"/>
<wire x1="-7.62" y1="-0.635" x2="-6.985" y2="-1.27" width="0.1524" layer="21"/>
<wire x1="-5.715" y1="-1.27" x2="-6.985" y2="-1.27" width="0.1524" layer="21"/>
<wire x1="5.715" y1="1.27" x2="6.985" y2="1.27" width="0.1524" layer="21"/>
<wire x1="6.985" y1="1.27" x2="7.62" y2="0.635" width="0.1524" layer="21"/>
<wire x1="7.62" y1="0.635" x2="7.62" y2="-0.635" width="0.1524" layer="21"/>
<wire x1="7.62" y1="-0.635" x2="6.985" y2="-1.27" width="0.1524" layer="21"/>
<wire x1="5.715" y1="1.27" x2="5.08" y2="0.635" width="0.1524" layer="21"/>
<wire x1="5.08" y1="-0.635" x2="5.715" y2="-1.27" width="0.1524" layer="21"/>
<wire x1="6.985" y1="-1.27" x2="5.715" y2="-1.27" width="0.1524" layer="21"/>
<pad name="1" x="-6.35" y="0" drill="1.016" shape="octagon" rot="R90"/>
<pad name="2" x="-3.81" y="0" drill="1.016" shape="octagon" rot="R90"/>
<pad name="3" x="-1.27" y="0" drill="1.016" shape="octagon" rot="R90"/>
<pad name="4" x="1.27" y="0" drill="1.016" shape="octagon" rot="R90"/>
<pad name="5" x="3.81" y="0" drill="1.016" shape="octagon" rot="R90"/>
<pad name="6" x="6.35" y="0" drill="1.016" shape="octagon" rot="R90"/>
<text x="-7.6962" y="1.8288" size="1.27" layer="25" ratio="10">&gt;NAME</text>
<text x="-7.62" y="-3.175" size="1.27" layer="27">&gt;VALUE</text>
<rectangle x1="3.556" y1="-0.254" x2="4.064" y2="0.254" layer="51"/>
<rectangle x1="1.016" y1="-0.254" x2="1.524" y2="0.254" layer="51"/>
<rectangle x1="-1.524" y1="-0.254" x2="-1.016" y2="0.254" layer="51"/>
<rectangle x1="-4.064" y1="-0.254" x2="-3.556" y2="0.254" layer="51"/>
<rectangle x1="-6.604" y1="-0.254" x2="-6.096" y2="0.254" layer="51"/>
<rectangle x1="6.096" y1="-0.254" x2="6.604" y2="0.254" layer="51"/>
</package>
</packages>
</library>
<library name="eagle-ltspice" urn="urn:adsk.eagle:library:217">
<description>Default symbols for import LTspice schematics&lt;p&gt;
2012-10-29 alf@cadsoft.de&lt;br&gt;</description>
<packages>
<package name="R0805" urn="urn:adsk.eagle:footprint:13236/1" library_version="1">
<description>&lt;b&gt;RESISTOR&lt;/b&gt;&lt;p&gt;</description>
<wire x1="-0.41" y1="0.635" x2="0.41" y2="0.635" width="0.1524" layer="51"/>
<wire x1="-0.41" y1="-0.635" x2="0.41" y2="-0.635" width="0.1524" layer="51"/>
<wire x1="-1.973" y1="0.983" x2="1.973" y2="0.983" width="0.0508" layer="39"/>
<wire x1="1.973" y1="0.983" x2="1.973" y2="-0.983" width="0.0508" layer="39"/>
<wire x1="1.973" y1="-0.983" x2="-1.973" y2="-0.983" width="0.0508" layer="39"/>
<wire x1="-1.973" y1="-0.983" x2="-1.973" y2="0.983" width="0.0508" layer="39"/>
<rectangle x1="0.4064" y1="-0.6985" x2="1.0564" y2="0.7015" layer="51"/>
<rectangle x1="-1.0668" y1="-0.6985" x2="-0.4168" y2="0.7015" layer="51"/>
<rectangle x1="-0.1999" y1="-0.5001" x2="0.1999" y2="0.5001" layer="35"/>
<smd name="1" x="-0.95" y="0" dx="1.3" dy="1.5" layer="1"/>
<smd name="2" x="0.95" y="0" dx="1.3" dy="1.5" layer="1"/>
<text x="-0.635" y="1.27" size="1.27" layer="25">&gt;NAME</text>
<text x="-0.635" y="-2.54" size="1.27" layer="27">&gt;VALUE</text>
</package>
<package name="LED_1206" urn="urn:adsk.eagle:footprint:13254/1" library_version="3">
<description>&lt;b&gt;CHICAGO MINIATURE LAMP, INC.&lt;/b&gt;&lt;p&gt;
7022X Series SMT LEDs 1206 Package Size</description>
<wire x1="1.55" y1="-0.75" x2="-1.55" y2="-0.75" width="0.1016" layer="51"/>
<wire x1="-1.55" y1="-0.75" x2="-1.55" y2="0.75" width="0.1016" layer="51"/>
<wire x1="-1.55" y1="0.75" x2="1.55" y2="0.75" width="0.1016" layer="51"/>
<wire x1="1.55" y1="0.75" x2="1.55" y2="-0.75" width="0.1016" layer="51"/>
<wire x1="-0.55" y1="-0.5" x2="0.55" y2="-0.5" width="0.1016" layer="21" curve="95.452622"/>
<wire x1="-0.55" y1="-0.5" x2="-0.55" y2="0.5" width="0.1016" layer="51" curve="-84.547378"/>
<wire x1="-0.55" y1="0.5" x2="0.55" y2="0.5" width="0.1016" layer="21" curve="-95.452622"/>
<wire x1="0.55" y1="0.5" x2="0.55" y2="-0.5" width="0.1016" layer="51" curve="-84.547378"/>
<rectangle x1="-0.1" y1="-0.1" x2="0.1" y2="0.1" layer="21"/>
<rectangle x1="0.45" y1="-0.7" x2="0.8" y2="-0.45" layer="51"/>
<rectangle x1="0.8" y1="-0.7" x2="0.9" y2="0.5" layer="51"/>
<rectangle x1="0.8" y1="0.55" x2="0.9" y2="0.7" layer="51"/>
<rectangle x1="-0.9" y1="-0.7" x2="-0.8" y2="0.5" layer="51"/>
<rectangle x1="-0.9" y1="0.55" x2="-0.8" y2="0.7" layer="51"/>
<rectangle x1="0.45" y1="-0.7" x2="0.6" y2="-0.45" layer="21"/>
<smd name="A" x="-1.422" y="0" dx="1.6" dy="1.803" layer="1"/>
<smd name="C" x="1.422" y="0" dx="1.6" dy="1.803" layer="1"/>
<text x="-1.27" y="1.27" size="1.27" layer="25">&gt;NAME</text>
<text x="-1.27" y="-2.54" size="1.27" layer="27">&gt;VALUE</text>
</package>
</packages>
<packages3d>
<package3d name="R0805" urn="urn:adsk.eagle:package:13300/1" type="box" library_version="1">
<description>RESISTOR</description>
<packageinstances>
<packageinstance name="R0805"/>
</packageinstances>
</package3d>
<package3d name="LED_1206" urn="urn:adsk.eagle:package:13319/2" type="model" library_version="3">
<description>CHICAGO MINIATURE LAMP, INC.
7022X Series SMT LEDs 1206 Package Size</description>
<packageinstances>
<packageinstance name="LED_1206"/>
</packageinstances>
</package3d>
</packages3d>
</library>
</libraries>
<attributes>
</attributes>
<variantdefs>
</variantdefs>
<classes>
<class number="0" name="default" width="0" drill="0">
</class>
</classes>
<designrules name="default">
<description language="de">&lt;b&gt;EAGLE Design Rules&lt;/b&gt;
&lt;p&gt;
Die Standard-Design-Rules sind so gewählt, dass sie für 
die meisten Anwendungen passen. Sollte ihre Platine 
besondere Anforderungen haben, treffen Sie die erforderlichen
Einstellungen hier und speichern die Design Rules unter 
einem neuen Namen ab.</description>
<description language="en">&lt;b&gt;EAGLE Design Rules&lt;/b&gt;
&lt;p&gt;
The default Design Rules have been set to cover
a wide range of applications. Your particular design
may have different requirements, so please make the
necessary adjustments and save your customized
design rules under a new name.</description>
<param name="layerSetup" value="(1*16)"/>
<param name="mtCopper" value="0.035mm 0.035mm 0.035mm 0.035mm 0.035mm 0.035mm 0.035mm 0.035mm 0.035mm 0.035mm 0.035mm 0.035mm 0.035mm 0.035mm 0.035mm 0.035mm"/>
<param name="mtIsolate" value="1.5mm 0.15mm 0.2mm 0.15mm 0.2mm 0.15mm 0.2mm 0.15mm 0.2mm 0.15mm 0.2mm 0.15mm 0.2mm 0.15mm 0.2mm"/>
<param name="mdWireWire" value="6mil"/>
<param name="mdWirePad" value="6mil"/>
<param name="mdWireVia" value="6mil"/>
<param name="mdPadPad" value="6mil"/>
<param name="mdPadVia" value="6mil"/>
<param name="mdViaVia" value="6mil"/>
<param name="mdSmdPad" value="6mil"/>
<param name="mdSmdVia" value="6mil"/>
<param name="mdSmdSmd" value="6mil"/>
<param name="mdViaViaSameLayer" value="6mil"/>
<param name="mnLayersViaInSmd" value="2"/>
<param name="mdCopperDimension" value="40mil"/>
<param name="mdDrill" value="6mil"/>
<param name="mdSmdStop" value="0mil"/>
<param name="msWidth" value="6mil"/>
<param name="msDrill" value="0.35mm"/>
<param name="msMicroVia" value="9.99mm"/>
<param name="msBlindViaRatio" value="0.5"/>
<param name="rvPadTop" value="0.25"/>
<param name="rvPadInner" value="0.25"/>
<param name="rvPadBottom" value="0.25"/>
<param name="rvViaOuter" value="0.25"/>
<param name="rvViaInner" value="0.25"/>
<param name="rvMicroViaOuter" value="0.25"/>
<param name="rvMicroViaInner" value="0.25"/>
<param name="rlMinPadTop" value="10mil"/>
<param name="rlMaxPadTop" value="20mil"/>
<param name="rlMinPadInner" value="10mil"/>
<param name="rlMaxPadInner" value="20mil"/>
<param name="rlMinPadBottom" value="10mil"/>
<param name="rlMaxPadBottom" value="20mil"/>
<param name="rlMinViaOuter" value="8mil"/>
<param name="rlMaxViaOuter" value="20mil"/>
<param name="rlMinViaInner" value="8mil"/>
<param name="rlMaxViaInner" value="20mil"/>
<param name="rlMinMicroViaOuter" value="4mil"/>
<param name="rlMaxMicroViaOuter" value="20mil"/>
<param name="rlMinMicroViaInner" value="4mil"/>
<param name="rlMaxMicroViaInner" value="20mil"/>
<param name="psTop" value="-1"/>
<param name="psBottom" value="-1"/>
<param name="psFirst" value="-1"/>
<param name="psElongationLong" value="100"/>
<param name="psElongationOffset" value="100"/>
<param name="mvStopFrame" value="1"/>
<param name="mvCreamFrame" value="0"/>
<param name="mlMinStopFrame" value="4mil"/>
<param name="mlMaxStopFrame" value="4mil"/>
<param name="mlMinCreamFrame" value="0mil"/>
<param name="mlMaxCreamFrame" value="0mil"/>
<param name="mlViaStopLimit" value="0mil"/>
<param name="srRoundness" value="0"/>
<param name="srMinRoundness" value="0mil"/>
<param name="srMaxRoundness" value="0mil"/>
<param name="slThermalIsolate" value="10mil"/>
<param name="slThermalsForVias" value="0"/>
<param name="dpMaxLengthDifference" value="10mm"/>
<param name="dpGapFactor" value="2.5"/>
<param name="checkAngle" value="0"/>
<param name="checkFont" value="1"/>
<param name="checkRestrict" value="1"/>
<param name="checkStop" value="0"/>
<param name="checkValues" value="0"/>
<param name="checkNames" value="1"/>
<param name="checkWireStubs" value="1"/>
<param name="checkPolygonWidth" value="0"/>
<param name="useDiameter" value="13"/>
<param name="maxErrors" value="50"/>
</designrules>
<autorouter>
<pass name="Default">
<param name="RoutingGrid" value="50mil"/>
<param name="AutoGrid" value="1"/>
<param name="Efforts" value="0"/>
<param name="TopRouterVariant" value="1"/>
<param name="tpViaShape" value="round"/>
<param name="PrefDir.1" value="a"/>
<param name="PrefDir.2" value="0"/>
<param name="PrefDir.3" value="0"/>
<param name="PrefDir.4" value="0"/>
<param name="PrefDir.5" value="0"/>
<param name="PrefDir.6" value="0"/>
<param name="PrefDir.7" value="0"/>
<param name="PrefDir.8" value="0"/>
<param name="PrefDir.9" value="0"/>
<param name="PrefDir.10" value="0"/>
<param name="PrefDir.11" value="0"/>
<param name="PrefDir.12" value="0"/>
<param name="PrefDir.13" value="0"/>
<param name="PrefDir.14" value="0"/>
<param name="PrefDir.15" value="0"/>
<param name="PrefDir.16" value="a"/>
<param name="cfVia" value="8"/>
<param name="cfNonPref" value="5"/>
<param name="cfChangeDir" value="2"/>
<param name="cfOrthStep" value="2"/>
<param name="cfDiagStep" value="3"/>
<param name="cfExtdStep" value="0"/>
<param name="cfBonusStep" value="1"/>
<param name="cfMalusStep" value="1"/>
<param name="cfPadImpact" value="4"/>
<param name="cfSmdImpact" value="4"/>
<param name="cfBusImpact" value="0"/>
<param name="cfHugging" value="3"/>
<param name="cfAvoid" value="4"/>
<param name="cfPolygon" value="10"/>
<param name="cfBase.1" value="0"/>
<param name="cfBase.2" value="1"/>
<param name="cfBase.3" value="1"/>
<param name="cfBase.4" value="1"/>
<param name="cfBase.5" value="1"/>
<param name="cfBase.6" value="1"/>
<param name="cfBase.7" value="1"/>
<param name="cfBase.8" value="1"/>
<param name="cfBase.9" value="1"/>
<param name="cfBase.10" value="1"/>
<param name="cfBase.11" value="1"/>
<param name="cfBase.12" value="1"/>
<param name="cfBase.13" value="1"/>
<param name="cfBase.14" value="1"/>
<param name="cfBase.15" value="1"/>
<param name="cfBase.16" value="0"/>
<param name="mnVias" value="20"/>
<param name="mnSegments" value="9999"/>
<param name="mnExtdSteps" value="9999"/>
<param name="mnRipupLevel" value="10"/>
<param name="mnRipupSteps" value="100"/>
<param name="mnRipupTotal" value="100"/>
</pass>
<pass name="Follow-me" refer="Default" active="yes">
</pass>
<pass name="Busses" refer="Default" active="yes">
<param name="cfNonPref" value="4"/>
<param name="cfBusImpact" value="4"/>
<param name="cfHugging" value="0"/>
<param name="mnVias" value="0"/>
</pass>
<pass name="Route" refer="Default" active="yes">
</pass>
<pass name="Optimize1" refer="Default" active="yes">
<param name="cfVia" value="99"/>
<param name="cfExtdStep" value="10"/>
<param name="cfHugging" value="1"/>
<param name="mnExtdSteps" value="1"/>
<param name="mnRipupLevel" value="0"/>
</pass>
<pass name="Optimize2" refer="Optimize1" active="yes">
<param name="cfNonPref" value="0"/>
<param name="cfChangeDir" value="6"/>
<param name="cfExtdStep" value="0"/>
<param name="cfBonusStep" value="2"/>
<param name="cfMalusStep" value="2"/>
<param name="cfPadImpact" value="2"/>
<param name="cfSmdImpact" value="2"/>
<param name="cfHugging" value="0"/>
</pass>
<pass name="Optimize3" refer="Optimize2" active="yes">
<param name="cfChangeDir" value="8"/>
<param name="cfPadImpact" value="0"/>
<param name="cfSmdImpact" value="0"/>
</pass>
<pass name="Optimize4" refer="Optimize3" active="yes">
<param name="cfChangeDir" value="25"/>
</pass>
</autorouter>
<elements>
<element name="U1" library="DRV8825_STEPPER_MOTOR_DRIVER_CARRIER" package="IC_DRV8825_STEPPER_MOTOR_DRIVER_CARRIER" value="DRV8825_STEPPER_MOTOR_DRIVER_CARRIER" x="-48.26" y="13.97" smashed="yes">
<attribute name="AVAILABILITY" value="Unavailable" x="0" y="0" size="1.778" layer="27" display="off"/>
<attribute name="DESCRIPTION" value=" Stepper, Bipolar 8.2 ~ 45VDC Supply 1.5A 8.2 ~ 45V Load " x="0" y="0" size="1.778" layer="27" display="off"/>
<attribute name="MF" value="Pololu" x="0" y="0" size="1.778" layer="27" display="off"/>
<attribute name="MP" value="DRV8825 STEPPER MOTOR DRIVER CARRIER" x="0" y="0" size="1.778" layer="27" display="off"/>
<attribute name="NAME" x="-55.88" y="25.4" size="1.27" layer="25"/>
<attribute name="PACKAGE" value="None" x="0" y="0" size="1.778" layer="27" display="off"/>
<attribute name="PRICE" value="None" x="0" y="0" size="1.778" layer="27" display="off"/>
<attribute name="VALUE" x="-55.88" y="1.27" size="1.27" layer="27"/>
</element>
<element name="U2" library="DRV8825_STEPPER_MOTOR_DRIVER_CARRIER" package="IC_DRV8825_STEPPER_MOTOR_DRIVER_CARRIER" value="DRV8825_STEPPER_MOTOR_DRIVER_CARRIER" x="-92.71" y="13.97" smashed="yes">
<attribute name="AVAILABILITY" value="Unavailable" x="0" y="0" size="1.778" layer="27" display="off"/>
<attribute name="DESCRIPTION" value=" Stepper, Bipolar 8.2 ~ 45VDC Supply 1.5A 8.2 ~ 45V Load " x="0" y="0" size="1.778" layer="27" display="off"/>
<attribute name="MF" value="Pololu" x="0" y="0" size="1.778" layer="27" display="off"/>
<attribute name="MP" value="DRV8825 STEPPER MOTOR DRIVER CARRIER" x="0" y="0" size="1.778" layer="27" display="off"/>
<attribute name="NAME" x="-100.33" y="25.4" size="1.27" layer="25"/>
<attribute name="PACKAGE" value="None" x="0" y="0" size="1.778" layer="27" display="off"/>
<attribute name="PRICE" value="None" x="0" y="0" size="1.778" layer="27" display="off"/>
<attribute name="VALUE" x="-100.33" y="1.27" size="1.27" layer="27"/>
</element>
<element name="U3" library="DRV8825_STEPPER_MOTOR_DRIVER_CARRIER" package="IC_DRV8825_STEPPER_MOTOR_DRIVER_CARRIER" value="DRV8825_STEPPER_MOTOR_DRIVER_CARRIER" x="-48.26" y="40.64" smashed="yes">
<attribute name="AVAILABILITY" value="Unavailable" x="0" y="0" size="1.778" layer="27" display="off"/>
<attribute name="DESCRIPTION" value=" Stepper, Bipolar 8.2 ~ 45VDC Supply 1.5A 8.2 ~ 45V Load " x="0" y="0" size="1.778" layer="27" display="off"/>
<attribute name="MF" value="Pololu" x="0" y="0" size="1.778" layer="27" display="off"/>
<attribute name="MP" value="DRV8825 STEPPER MOTOR DRIVER CARRIER" x="0" y="0" size="1.778" layer="27" display="off"/>
<attribute name="NAME" x="-55.88" y="52.07" size="1.27" layer="25"/>
<attribute name="PACKAGE" value="None" x="0" y="0" size="1.778" layer="27" display="off"/>
<attribute name="PRICE" value="None" x="0" y="0" size="1.778" layer="27" display="off"/>
<attribute name="VALUE" x="-55.88" y="27.94" size="1.27" layer="27"/>
</element>
<element name="U4" library="DRV8825_STEPPER_MOTOR_DRIVER_CARRIER" package="IC_DRV8825_STEPPER_MOTOR_DRIVER_CARRIER" value="DRV8825_STEPPER_MOTOR_DRIVER_CARRIER" x="-92.71" y="40.64" smashed="yes">
<attribute name="AVAILABILITY" value="Unavailable" x="0" y="0" size="1.778" layer="27" display="off"/>
<attribute name="DESCRIPTION" value=" Stepper, Bipolar 8.2 ~ 45VDC Supply 1.5A 8.2 ~ 45V Load " x="0" y="0" size="1.778" layer="27" display="off"/>
<attribute name="MF" value="Pololu" x="0" y="0" size="1.778" layer="27" display="off"/>
<attribute name="MP" value="DRV8825 STEPPER MOTOR DRIVER CARRIER" x="0" y="0" size="1.778" layer="27" display="off"/>
<attribute name="NAME" x="-100.33" y="52.07" size="1.27" layer="25"/>
<attribute name="PACKAGE" value="None" x="0" y="0" size="1.778" layer="27" display="off"/>
<attribute name="PRICE" value="None" x="0" y="0" size="1.778" layer="27" display="off"/>
<attribute name="VALUE" x="-100.33" y="27.94" size="1.27" layer="27"/>
</element>
<element name="U5" library="DRV8825_STEPPER_MOTOR_DRIVER_CARRIER" package="IC_DRV8825_STEPPER_MOTOR_DRIVER_CARRIER" value="DRV8825_STEPPER_MOTOR_DRIVER_CARRIER" x="-48.26" y="67.31" smashed="yes">
<attribute name="AVAILABILITY" value="Unavailable" x="0" y="0" size="1.778" layer="27" display="off"/>
<attribute name="DESCRIPTION" value=" Stepper, Bipolar 8.2 ~ 45VDC Supply 1.5A 8.2 ~ 45V Load " x="0" y="0" size="1.778" layer="27" display="off"/>
<attribute name="MF" value="Pololu" x="0" y="0" size="1.778" layer="27" display="off"/>
<attribute name="MP" value="DRV8825 STEPPER MOTOR DRIVER CARRIER" x="0" y="0" size="1.778" layer="27" display="off"/>
<attribute name="NAME" x="-55.88" y="78.74" size="1.27" layer="25"/>
<attribute name="PACKAGE" value="None" x="0" y="0" size="1.778" layer="27" display="off"/>
<attribute name="PRICE" value="None" x="0" y="0" size="1.778" layer="27" display="off"/>
<attribute name="VALUE" x="-55.88" y="54.61" size="1.27" layer="27"/>
</element>
<element name="U6" library="DRV8825_STEPPER_MOTOR_DRIVER_CARRIER" package="IC_DRV8825_STEPPER_MOTOR_DRIVER_CARRIER" value="DRV8825_STEPPER_MOTOR_DRIVER_CARRIER" x="-92.71" y="67.31" smashed="yes">
<attribute name="AVAILABILITY" value="Unavailable" x="0" y="0" size="1.778" layer="27" display="off"/>
<attribute name="DESCRIPTION" value=" Stepper, Bipolar 8.2 ~ 45VDC Supply 1.5A 8.2 ~ 45V Load " x="0" y="0" size="1.778" layer="27" display="off"/>
<attribute name="MF" value="Pololu" x="0" y="0" size="1.778" layer="27" display="off"/>
<attribute name="MP" value="DRV8825 STEPPER MOTOR DRIVER CARRIER" x="0" y="0" size="1.778" layer="27" display="off"/>
<attribute name="NAME" x="-100.33" y="78.74" size="1.27" layer="25"/>
<attribute name="PACKAGE" value="None" x="0" y="0" size="1.778" layer="27" display="off"/>
<attribute name="PRICE" value="None" x="0" y="0" size="1.778" layer="27" display="off"/>
<attribute name="VALUE" x="-100.33" y="54.61" size="1.27" layer="27"/>
</element>
<element name="U7" library="DRV8825_STEPPER_MOTOR_DRIVER_CARRIER" package="IC_DRV8825_STEPPER_MOTOR_DRIVER_CARRIER" value="DRV8825_STEPPER_MOTOR_DRIVER_CARRIER" x="-48.26" y="93.98" smashed="yes">
<attribute name="AVAILABILITY" value="Unavailable" x="0" y="0" size="1.778" layer="27" display="off"/>
<attribute name="DESCRIPTION" value=" Stepper, Bipolar 8.2 ~ 45VDC Supply 1.5A 8.2 ~ 45V Load " x="0" y="0" size="1.778" layer="27" display="off"/>
<attribute name="MF" value="Pololu" x="0" y="0" size="1.778" layer="27" display="off"/>
<attribute name="MP" value="DRV8825 STEPPER MOTOR DRIVER CARRIER" x="0" y="0" size="1.778" layer="27" display="off"/>
<attribute name="NAME" x="-55.88" y="105.41" size="1.27" layer="25"/>
<attribute name="PACKAGE" value="None" x="0" y="0" size="1.778" layer="27" display="off"/>
<attribute name="PRICE" value="None" x="0" y="0" size="1.778" layer="27" display="off"/>
<attribute name="VALUE" x="-55.88" y="81.28" size="1.27" layer="27"/>
</element>
<element name="U8" library="DRV8825_STEPPER_MOTOR_DRIVER_CARRIER" package="IC_DRV8825_STEPPER_MOTOR_DRIVER_CARRIER" value="DRV8825_STEPPER_MOTOR_DRIVER_CARRIER" x="-92.71" y="93.98" smashed="yes">
<attribute name="AVAILABILITY" value="Unavailable" x="0" y="0" size="1.778" layer="27" display="off"/>
<attribute name="DESCRIPTION" value=" Stepper, Bipolar 8.2 ~ 45VDC Supply 1.5A 8.2 ~ 45V Load " x="0" y="0" size="1.778" layer="27" display="off"/>
<attribute name="MF" value="Pololu" x="0" y="0" size="1.778" layer="27" display="off"/>
<attribute name="MP" value="DRV8825 STEPPER MOTOR DRIVER CARRIER" x="0" y="0" size="1.778" layer="27" display="off"/>
<attribute name="NAME" x="-100.33" y="105.41" size="1.27" layer="25"/>
<attribute name="PACKAGE" value="None" x="0" y="0" size="1.778" layer="27" display="off"/>
<attribute name="PRICE" value="None" x="0" y="0" size="1.778" layer="27" display="off"/>
<attribute name="VALUE" x="-100.33" y="81.28" size="1.27" layer="27"/>
</element>
<element name="IC2" library="atmel_tiny24-44-84tiny48-88mega48-88-168-328" package="TQFP32-08" value="" x="22" y="17.54" smashed="yes" rot="R90">
<attribute name="NAME" x="24.06375" y="14.4539" size="0.8128" layer="25" rot="R90"/>
<attribute name="NAME" x="25.175" y="12.1425" size="1.27" layer="201" font="vector" ratio="12" rot="R180"/>
<attribute name="VALUE" x="25.175" y="14.5174" size="0.8128" layer="27" rot="R90"/>
</element>
<element name="C5" library="Clean-Kong" package="C0805" value="22pf" x="17.7" y="8.54" smashed="yes" rot="R270">
<attribute name="NAME" x="18.97" y="9.81" size="1.27" layer="25" rot="R270"/>
<attribute name="VALUE" x="15.16" y="9.81" size="1.27" layer="27" rot="R270"/>
</element>
<element name="C6" library="Clean-Kong" package="C0805" value="22pf" x="26.5" y="8.54" smashed="yes" rot="R90">
<attribute name="NAME" x="25.23" y="7.27" size="1.27" layer="25" rot="R90"/>
<attribute name="VALUE" x="29.04" y="7.27" size="1.27" layer="27" rot="R90"/>
</element>
<element name="CR2" library="adafruit" package="NX3225" value="" x="22" y="8.54" smashed="yes"/>
<element name="R3" library="eagle-ltspice" library_urn="urn:adsk.eagle:library:217" package="R0805" package3d_urn="urn:adsk.eagle:package:13300/1" value="10k" x="12" y="17.54" smashed="yes">
<attribute name="NAME" x="11.365" y="18.81" size="1.27" layer="25"/>
<attribute name="SPICEMODEL" value="NONE" x="-12" y="-15.46" size="1.778" layer="27" display="off"/>
<attribute name="SPICEPREFIX" value="R" x="-12" y="-15.46" size="1.778" layer="27" display="off"/>
<attribute name="VALUE" x="10.365" y="20" size="1.27" layer="27"/>
</element>
<element name="C7" library="Clean-Kong" package="C0805" value="100nf" x="21" y="26.54" smashed="yes">
<attribute name="NAME" x="19.73" y="27.81" size="1.27" layer="25"/>
<attribute name="VALUE" x="19.73" y="24" size="1.27" layer="27"/>
</element>
<element name="PROGRAM_PORT1" library="adafruit" package="1X06" value="" x="7" y="17.54" smashed="yes" rot="R90">
<attribute name="NAME" x="4.1712" y="10.8438" size="1.27" layer="25" ratio="10" rot="R90"/>
<attribute name="VALUE" x="10.175" y="9.92" size="1.27" layer="27" rot="R90"/>
</element>
<element name="J2" library="SparkFun-Connectors" package="2X3" value="FEMALE 2x3" x="27" y="25.54" smashed="yes">
<attribute name="NAME" x="25.73" y="29.604" size="0.6096" layer="25" font="vector" ratio="20"/>
<attribute name="PROD_ID" value="CONN-11566" x="27" y="25.54" size="1.778" layer="27" display="off"/>
<attribute name="VALUE" x="25.73" y="23.127" size="0.6096" layer="27" font="vector" ratio="20"/>
</element>
<element name="C8" library="Clean-Kong" package="C0805" value="100nf" x="11.9" y="13.94" smashed="yes">
<attribute name="NAME" x="10.63" y="15.21" size="1.27" layer="25"/>
<attribute name="VALUE" x="10.63" y="11.4" size="1.27" layer="27"/>
</element>
<element name="R4" library="eagle-ltspice" library_urn="urn:adsk.eagle:library:217" package="R0805" package3d_urn="urn:adsk.eagle:package:13300/1" value="1k" x="32.1" y="10.94" smashed="yes">
<attribute name="NAME" x="31.465" y="12.21" size="1.27" layer="25"/>
<attribute name="SPICEMODEL" value="NONE" x="32.1" y="10.94" size="1.778" layer="27" display="off"/>
<attribute name="SPICEPREFIX" value="R" x="32.1" y="10.94" size="1.778" layer="27" display="off"/>
<attribute name="VALUE" x="31.465" y="8.4" size="1.27" layer="27"/>
</element>
<element name="LED2" library="eagle-ltspice" library_urn="urn:adsk.eagle:library:217" package="LED_1206" package3d_urn="urn:adsk.eagle:package:13319/2" value="" x="32" y="15.54" smashed="yes">
<attribute name="NAME" x="29.73" y="16.81" size="1.27" layer="25"/>
<attribute name="SPICEMODEL" value="NONE" x="32" y="15.54" size="1.778" layer="27" display="off"/>
<attribute name="SPICEPREFIX" value="D" x="32" y="15.54" size="1.778" layer="27" display="off"/>
<attribute name="SPICETYPE" value="diode" x="32" y="15.54" size="1.778" layer="27" display="off"/>
<attribute name="VALUE" x="30.73" y="13" size="1.27" layer="27"/>
</element>
</elements>
<signals>
<signal name="VMOT">
<contactref element="U1" pad="16"/>
<contactref element="U2" pad="16"/>
<contactref element="U3" pad="16"/>
<contactref element="U4" pad="16"/>
<contactref element="U5" pad="16"/>
<contactref element="U6" pad="16"/>
<contactref element="U7" pad="16"/>
<contactref element="U8" pad="16"/>
<wire x1="-86.36" y1="49.53" x2="-86.36" y2="22.86" width="0" layer="19" extent="1-1"/>
<wire x1="-86.36" y1="76.2" x2="-86.36" y2="49.53" width="0" layer="19" extent="1-1"/>
<wire x1="-86.36" y1="102.87" x2="-86.36" y2="76.2" width="0" layer="19" extent="1-1"/>
<wire x1="-41.91" y1="102.87" x2="-86.36" y2="102.87" width="0" layer="19" extent="1-1"/>
<wire x1="-41.91" y1="76.2" x2="-41.91" y2="102.87" width="0" layer="19" extent="1-1"/>
<wire x1="-41.91" y1="49.53" x2="-41.91" y2="76.2" width="0" layer="19" extent="1-1"/>
<wire x1="-41.91" y1="22.86" x2="-41.91" y2="49.53" width="0" layer="19" extent="1-1"/>
</signal>
<signal name="GND">
<contactref element="U1" pad="9"/>
<contactref element="U2" pad="9"/>
<contactref element="U3" pad="9"/>
<contactref element="U4" pad="9"/>
<contactref element="U5" pad="9"/>
<contactref element="U6" pad="9"/>
<contactref element="U7" pad="9"/>
<contactref element="U8" pad="9"/>
<contactref element="IC2" pad="5"/>
<contactref element="IC2" pad="21"/>
<contactref element="IC2" pad="3"/>
<contactref element="C5" pad="1"/>
<contactref element="C6" pad="1"/>
<contactref element="C7" pad="2"/>
<contactref element="PROGRAM_PORT1" pad="6"/>
<contactref element="PROGRAM_PORT1" pad="5"/>
<contactref element="CR2" pad="2"/>
<contactref element="CR2" pad="4"/>
<contactref element="J2" pad="6"/>
<contactref element="LED2" pad="C"/>
<wire x1="-86.36" y1="31.75" x2="-86.36" y2="5.08" width="0" layer="19" extent="1-1"/>
<wire x1="-86.36" y1="58.42" x2="-86.36" y2="31.75" width="0" layer="19" extent="1-1"/>
<wire x1="-86.36" y1="85.09" x2="-86.36" y2="58.42" width="0" layer="19" extent="1-1"/>
<wire x1="-41.91" y1="85.09" x2="-86.36" y2="85.09" width="0" layer="19" extent="1-1"/>
<wire x1="-41.91" y1="58.42" x2="-41.91" y2="85.09" width="0" layer="19" extent="1-1"/>
<wire x1="-41.91" y1="31.75" x2="-41.91" y2="58.42" width="0" layer="19" extent="1-1"/>
<wire x1="-41.91" y1="5.08" x2="-41.91" y2="31.75" width="0" layer="19" extent="1-1"/>
<wire x1="7" y1="23.89" x2="-41.91" y2="31.75" width="0" layer="19" extent="1-1"/>
<wire x1="7" y1="21.35" x2="7" y2="23.89" width="0" layer="19" extent="1-1"/>
<wire x1="21.6" y1="21.8326" x2="7" y2="21.35" width="0" layer="19" extent="1-1"/>
<wire x1="21.95" y1="26.54" x2="21.6" y2="21.8326" width="0" layer="19" extent="1-1"/>
<wire x1="22.4" y1="13.2474" x2="21.6" y2="21.8326" width="0" layer="19" extent="1-1"/>
<wire x1="20.8" y1="13.2474" x2="22.4" y2="13.2474" width="0" layer="19" extent="1-1"/>
<wire x1="20.9" y1="9.34" x2="20.8" y2="13.2474" width="0" layer="19" extent="1-1"/>
<wire x1="23.1" y1="7.74" x2="20.9" y2="9.34" width="0" layer="19" extent="1-1"/>
<wire x1="17.7" y1="9.49" x2="20.9" y2="9.34" width="0" layer="19" extent="1-1"/>
<wire x1="26.5" y1="7.59" x2="23.1" y2="7.74" width="0" layer="19" extent="1-1"/>
<wire x1="32.08" y1="28.08" x2="21.95" y2="26.54" width="0" layer="19" extent="1-1"/>
<wire x1="33.422" y1="15.54" x2="26.5" y2="7.59" width="0" layer="19" extent="1-1"/>
</signal>
<signal name="GND_MOT">
<contactref element="U1" pad="15"/>
<contactref element="U2" pad="15"/>
<contactref element="U3" pad="15"/>
<contactref element="U4" pad="15"/>
<contactref element="U5" pad="15"/>
<contactref element="U6" pad="15"/>
<contactref element="U7" pad="15"/>
<contactref element="U8" pad="15"/>
<wire x1="-86.36" y1="46.99" x2="-86.36" y2="20.32" width="0" layer="19" extent="1-1"/>
<wire x1="-86.36" y1="73.66" x2="-86.36" y2="46.99" width="0" layer="19" extent="1-1"/>
<wire x1="-86.36" y1="100.33" x2="-86.36" y2="73.66" width="0" layer="19" extent="1-1"/>
<wire x1="-41.91" y1="100.33" x2="-86.36" y2="100.33" width="0" layer="19" extent="1-1"/>
<wire x1="-41.91" y1="73.66" x2="-41.91" y2="100.33" width="0" layer="19" extent="1-1"/>
<wire x1="-41.91" y1="46.99" x2="-41.91" y2="73.66" width="0" layer="19" extent="1-1"/>
<wire x1="-41.91" y1="20.32" x2="-41.91" y2="46.99" width="0" layer="19" extent="1-1"/>
</signal>
<signal name="VCC">
<contactref element="IC2" pad="18"/>
<contactref element="R3" pad="1"/>
<contactref element="C7" pad="1"/>
<contactref element="PROGRAM_PORT1" pad="4"/>
<contactref element="J2" pad="2"/>
<contactref element="R4" pad="1"/>
<wire x1="24" y1="21.8326" x2="27" y2="28.08" width="0" layer="19" extent="1-1"/>
<wire x1="20.05" y1="26.54" x2="24" y2="21.8326" width="0" layer="19" extent="1-1"/>
<wire x1="11.05" y1="17.54" x2="20.05" y2="26.54" width="0" layer="19" extent="1-1"/>
<wire x1="7" y1="18.81" x2="11.05" y2="17.54" width="0" layer="19" extent="1-1"/>
<wire x1="31.15" y1="10.94" x2="24" y2="21.8326" width="0" layer="19" extent="1-1"/>
</signal>
<signal name="UCC">
<contactref element="IC2" pad="4"/>
<contactref element="IC2" pad="6"/>
<wire x1="21.6" y1="13.2474" x2="23.2" y2="13.2474" width="0" layer="19" extent="1-1"/>
</signal>
<signal name="N$2">
<contactref element="IC2" pad="7"/>
<contactref element="CR2" pad="1"/>
<contactref element="C5" pad="2"/>
<wire x1="20.9" y1="7.74" x2="24" y2="13.2474" width="0" layer="19" extent="1-1"/>
<wire x1="17.7" y1="7.59" x2="20.9" y2="7.74" width="0" layer="19" extent="1-1"/>
</signal>
<signal name="DTR">
<contactref element="PROGRAM_PORT1" pad="1"/>
<contactref element="C8" pad="1"/>
<wire x1="7" y1="11.19" x2="10.95" y2="13.94" width="0" layer="19" extent="1-1"/>
</signal>
<signal name="RX">
<contactref element="PROGRAM_PORT1" pad="2"/>
<contactref element="IC2" pad="31"/>
<wire x1="7" y1="13.73" x2="17.7074" y2="15.54" width="0" layer="19" extent="1-1"/>
</signal>
<signal name="TX">
<contactref element="PROGRAM_PORT1" pad="3"/>
<contactref element="IC2" pad="30"/>
<wire x1="7" y1="16.27" x2="17.7074" y2="16.34" width="0" layer="19" extent="1-1"/>
</signal>
<signal name="N$3">
<contactref element="C6" pad="2"/>
<contactref element="CR2" pad="3"/>
<contactref element="IC2" pad="8"/>
<wire x1="26.5" y1="9.49" x2="24.8" y2="13.2474" width="0" layer="19" extent="1-1"/>
<wire x1="23.1" y1="9.34" x2="26.5" y2="9.49" width="0" layer="19" extent="1-1"/>
</signal>
<signal name="MISO">
<contactref element="J2" pad="1"/>
<contactref element="IC2" pad="16"/>
<wire x1="26.2926" y1="20.34" x2="27" y2="25.54" width="0" layer="19" extent="1-1"/>
</signal>
<signal name="SCK">
<contactref element="J2" pad="3"/>
<contactref element="IC2" pad="17"/>
<wire x1="24.8" y1="21.8326" x2="29.54" y2="25.54" width="0" layer="19" extent="1-1"/>
</signal>
<signal name="MOSI">
<contactref element="J2" pad="4"/>
<contactref element="IC2" pad="15"/>
<wire x1="26.2926" y1="19.54" x2="29.54" y2="28.08" width="0" layer="19" extent="1-1"/>
</signal>
<signal name="RESET">
<contactref element="R3" pad="2"/>
<contactref element="IC2" pad="29"/>
<contactref element="C8" pad="2"/>
<contactref element="J2" pad="5"/>
<wire x1="17.7074" y1="17.14" x2="32.08" y2="25.54" width="0" layer="19" extent="1-1"/>
<wire x1="12.95" y1="17.54" x2="17.7074" y2="17.14" width="0" layer="19" extent="1-1"/>
<wire x1="12.85" y1="13.94" x2="12.95" y2="17.54" width="0" layer="19" extent="1-1"/>
</signal>
<signal name="N$4">
<contactref element="R4" pad="2"/>
<contactref element="LED2" pad="A"/>
<wire x1="33.05" y1="10.94" x2="30.578" y2="15.54" width="0" layer="19" extent="1-1"/>
</signal>
</signals>
<mfgpreviewcolors>
<mfgpreviewcolor name="soldermaskcolor" color="0xC8008000"/>
<mfgpreviewcolor name="silkscreencolor" color="0xFFFEFEFE"/>
<mfgpreviewcolor name="backgroundcolor" color="0xFF282828"/>
<mfgpreviewcolor name="coppercolor" color="0xFFFFBF00"/>
<mfgpreviewcolor name="substratecolor" color="0xFF786E46"/>
</mfgpreviewcolors>
</board>
</drawing>
<compatibility>
<note version="8.2" severity="warning">
Since Version 8.2, EAGLE supports online libraries. The ids
of those online libraries will not be understood (or retained)
with this version.
</note>
<note version="8.3" severity="warning">
Since Version 8.3, EAGLE supports URNs for individual library
assets (packages, symbols, and devices). The URNs of those assets
will not be understood (or retained) with this version.
</note>
<note version="8.3" severity="warning">
Since Version 8.3, EAGLE supports the association of 3D packages
with devices in libraries, schematics, and board files. Those 3D
packages will not be understood (or retained) with this version.
</note>
</compatibility>
</eagle>
