"Note: 2.54mm connectors are not included, buy some pinstrip and jst kits on the side",,,,,,,,,,,,,,
an online version of these bom's can be found here: https://docs.google.com/spreadsheets/d/1Xr9NLTLRWx00J0dbRz_tO7DEXrICNrxgsrCFqzn1wjI/edit?usp=sharing,,,,,,,,,,,,,,
Qty,Value,Device,Package,Parts,Description,AVAILABILITY,DESCRIPTION,MF,MP,PACKAGE,PRICE,MANUFACTURE_NUM,PURCHASE-URL,SF_ID
1,ESP32-DEVKITC-32D,ESP32-DEVKITC-32D,MODULE_ESP32-DEVKITC-32D,U1,Eval Board For Esp-Wroom-32 Check prices,Warning, - Transceiver," 802.11 b/g/n (Wi-Fi, WiFi, WLAN), Bluetooth® Smart Ready 4.x Dual Mode For Use With ESP-WROOM-32 ",Espressif Systems,ESP32-DEVKITC-32D,,none,,
1,5.08mm pitch screw block terminals,Screw terminals,5.08mm pitch screw block terminals,MAIN_BOARD_PWR,Check prices,Good,"2~24 Poles, Screw Type, Horizontal, 5.08 Pitch, 24~12 (AWG), Terminal Block Connector",CUI Devices,TB004-508-03BE,None,,DB126V-5.0-3P-GN,,
3,TXB0108PWR,TXB0108PWR,SOP65P640X120-20N,"U2, U4, U6",8-Bit Bidirectional Voltage-Level Shifter with Auto Direction Sensing and +/-15-kV ESD Protect 20-TSSOP -40 to 85  Check prices,Good, 8-Bit Bidirectional Voltage-Level Shifter with Auto Direction Sensing and +/-15-kV ESD Protect 20-TSSOP -40 to 85 ,Texas Instruments,TXB0108PWR,TSSOP-20 Texas Instruments,,TXB0108PWR,,
2,0.3 uf,capacitor mlcc,805,"C1, C2",,,,,,,,CL21B334KBFNNNE,,