%TF.GenerationSoftware,KiCad,Pcbnew,5.1.9-73d0e3b20d~88~ubuntu20.04.1*%
%TF.CreationDate,2021-02-18T23:08:47+00:00*%
%TF.ProjectId,pv-air-1_A,70762d61-6972-42d3-915f-412e6b696361,rev?*%
%TF.SameCoordinates,Original*%
%TF.FileFunction,Soldermask,Top*%
%TF.FilePolarity,Negative*%
%FSLAX46Y46*%
G04 Gerber Fmt 4.6, Leading zero omitted, Abs format (unit mm)*
G04 Created by KiCad (PCBNEW 5.1.9-73d0e3b20d~88~ubuntu20.04.1) date 2021-02-18 23:08:47*
%MOMM*%
%LPD*%
G01*
G04 APERTURE LIST*
%ADD10R,1.600000X1.400000*%
%ADD11O,1.700000X1.950000*%
%ADD12C,1.200000*%
%ADD13R,1.100000X0.250000*%
%ADD14R,1.600000X0.550000*%
%ADD15R,0.550000X1.600000*%
%ADD16R,1.800000X2.100000*%
%ADD17O,1.950000X1.700000*%
%ADD18C,7.000000*%
%ADD19C,0.800000*%
G04 APERTURE END LIST*
D10*
%TO.C,SW1*%
X140589500Y-93690000D03*
X148589500Y-93690000D03*
X140589500Y-89190000D03*
X148589500Y-89190000D03*
%TD*%
%TO.C,C1*%
G36*
G01*
X118626000Y-97122000D02*
X118626000Y-96172000D01*
G75*
G02*
X118876000Y-95922000I250000J0D01*
G01*
X119376000Y-95922000D01*
G75*
G02*
X119626000Y-96172000I0J-250000D01*
G01*
X119626000Y-97122000D01*
G75*
G02*
X119376000Y-97372000I-250000J0D01*
G01*
X118876000Y-97372000D01*
G75*
G02*
X118626000Y-97122000I0J250000D01*
G01*
G37*
G36*
G01*
X116726000Y-97122000D02*
X116726000Y-96172000D01*
G75*
G02*
X116976000Y-95922000I250000J0D01*
G01*
X117476000Y-95922000D01*
G75*
G02*
X117726000Y-96172000I0J-250000D01*
G01*
X117726000Y-97122000D01*
G75*
G02*
X117476000Y-97372000I-250000J0D01*
G01*
X116976000Y-97372000D01*
G75*
G02*
X116726000Y-97122000I0J250000D01*
G01*
G37*
%TD*%
%TO.C,C2*%
G36*
G01*
X143960000Y-102964000D02*
X143960000Y-102014000D01*
G75*
G02*
X144210000Y-101764000I250000J0D01*
G01*
X144710000Y-101764000D01*
G75*
G02*
X144960000Y-102014000I0J-250000D01*
G01*
X144960000Y-102964000D01*
G75*
G02*
X144710000Y-103214000I-250000J0D01*
G01*
X144210000Y-103214000D01*
G75*
G02*
X143960000Y-102964000I0J250000D01*
G01*
G37*
G36*
G01*
X142060000Y-102964000D02*
X142060000Y-102014000D01*
G75*
G02*
X142310000Y-101764000I250000J0D01*
G01*
X142810000Y-101764000D01*
G75*
G02*
X143060000Y-102014000I0J-250000D01*
G01*
X143060000Y-102964000D01*
G75*
G02*
X142810000Y-103214000I-250000J0D01*
G01*
X142310000Y-103214000D01*
G75*
G02*
X142060000Y-102964000I0J250000D01*
G01*
G37*
%TD*%
%TO.C,C3*%
G36*
G01*
X127414000Y-99324500D02*
X128364000Y-99324500D01*
G75*
G02*
X128614000Y-99574500I0J-250000D01*
G01*
X128614000Y-100074500D01*
G75*
G02*
X128364000Y-100324500I-250000J0D01*
G01*
X127414000Y-100324500D01*
G75*
G02*
X127164000Y-100074500I0J250000D01*
G01*
X127164000Y-99574500D01*
G75*
G02*
X127414000Y-99324500I250000J0D01*
G01*
G37*
G36*
G01*
X127414000Y-101224500D02*
X128364000Y-101224500D01*
G75*
G02*
X128614000Y-101474500I0J-250000D01*
G01*
X128614000Y-101974500D01*
G75*
G02*
X128364000Y-102224500I-250000J0D01*
G01*
X127414000Y-102224500D01*
G75*
G02*
X127164000Y-101974500I0J250000D01*
G01*
X127164000Y-101474500D01*
G75*
G02*
X127414000Y-101224500I250000J0D01*
G01*
G37*
%TD*%
%TO.C,C4*%
G36*
G01*
X136558000Y-91260000D02*
X137508000Y-91260000D01*
G75*
G02*
X137758000Y-91510000I0J-250000D01*
G01*
X137758000Y-92010000D01*
G75*
G02*
X137508000Y-92260000I-250000J0D01*
G01*
X136558000Y-92260000D01*
G75*
G02*
X136308000Y-92010000I0J250000D01*
G01*
X136308000Y-91510000D01*
G75*
G02*
X136558000Y-91260000I250000J0D01*
G01*
G37*
G36*
G01*
X136558000Y-93160000D02*
X137508000Y-93160000D01*
G75*
G02*
X137758000Y-93410000I0J-250000D01*
G01*
X137758000Y-93910000D01*
G75*
G02*
X137508000Y-94160000I-250000J0D01*
G01*
X136558000Y-94160000D01*
G75*
G02*
X136308000Y-93910000I0J250000D01*
G01*
X136308000Y-93410000D01*
G75*
G02*
X136558000Y-93160000I250000J0D01*
G01*
G37*
%TD*%
%TO.C,C5*%
G36*
G01*
X123200500Y-100551000D02*
X123200500Y-99601000D01*
G75*
G02*
X123450500Y-99351000I250000J0D01*
G01*
X123950500Y-99351000D01*
G75*
G02*
X124200500Y-99601000I0J-250000D01*
G01*
X124200500Y-100551000D01*
G75*
G02*
X123950500Y-100801000I-250000J0D01*
G01*
X123450500Y-100801000D01*
G75*
G02*
X123200500Y-100551000I0J250000D01*
G01*
G37*
G36*
G01*
X125100500Y-100551000D02*
X125100500Y-99601000D01*
G75*
G02*
X125350500Y-99351000I250000J0D01*
G01*
X125850500Y-99351000D01*
G75*
G02*
X126100500Y-99601000I0J-250000D01*
G01*
X126100500Y-100551000D01*
G75*
G02*
X125850500Y-100801000I-250000J0D01*
G01*
X125350500Y-100801000D01*
G75*
G02*
X125100500Y-100551000I0J250000D01*
G01*
G37*
%TD*%
%TO.C,C6*%
G36*
G01*
X125100500Y-108171000D02*
X125100500Y-107221000D01*
G75*
G02*
X125350500Y-106971000I250000J0D01*
G01*
X125850500Y-106971000D01*
G75*
G02*
X126100500Y-107221000I0J-250000D01*
G01*
X126100500Y-108171000D01*
G75*
G02*
X125850500Y-108421000I-250000J0D01*
G01*
X125350500Y-108421000D01*
G75*
G02*
X125100500Y-108171000I0J250000D01*
G01*
G37*
G36*
G01*
X123200500Y-108171000D02*
X123200500Y-107221000D01*
G75*
G02*
X123450500Y-106971000I250000J0D01*
G01*
X123950500Y-106971000D01*
G75*
G02*
X124200500Y-107221000I0J-250000D01*
G01*
X124200500Y-108171000D01*
G75*
G02*
X123950500Y-108421000I-250000J0D01*
G01*
X123450500Y-108421000D01*
G75*
G02*
X123200500Y-108171000I0J250000D01*
G01*
G37*
%TD*%
%TO.C,D1*%
G36*
G01*
X116662000Y-101594499D02*
X116662000Y-102494501D01*
G75*
G02*
X116412001Y-102744500I-249999J0D01*
G01*
X115761999Y-102744500D01*
G75*
G02*
X115512000Y-102494501I0J249999D01*
G01*
X115512000Y-101594499D01*
G75*
G02*
X115761999Y-101344500I249999J0D01*
G01*
X116412001Y-101344500D01*
G75*
G02*
X116662000Y-101594499I0J-249999D01*
G01*
G37*
G36*
G01*
X114612000Y-101594499D02*
X114612000Y-102494501D01*
G75*
G02*
X114362001Y-102744500I-249999J0D01*
G01*
X113711999Y-102744500D01*
G75*
G02*
X113462000Y-102494501I0J249999D01*
G01*
X113462000Y-101594499D01*
G75*
G02*
X113711999Y-101344500I249999J0D01*
G01*
X114362001Y-101344500D01*
G75*
G02*
X114612000Y-101594499I0J-249999D01*
G01*
G37*
%TD*%
%TO.C,J3*%
G36*
G01*
X146328500Y-111860500D02*
X146328500Y-113310500D01*
G75*
G02*
X146078500Y-113560500I-250000J0D01*
G01*
X144878500Y-113560500D01*
G75*
G02*
X144628500Y-113310500I0J250000D01*
G01*
X144628500Y-111860500D01*
G75*
G02*
X144878500Y-111610500I250000J0D01*
G01*
X146078500Y-111610500D01*
G75*
G02*
X146328500Y-111860500I0J-250000D01*
G01*
G37*
D11*
X142978500Y-112585500D03*
X140478500Y-112585500D03*
X137978500Y-112585500D03*
X135478500Y-112585500D03*
X132978500Y-112585500D03*
D12*
X147078500Y-110585500D03*
%TD*%
%TO.C,J4*%
G36*
G01*
X136105000Y-85889000D02*
X136105000Y-87339000D01*
G75*
G02*
X135855000Y-87589000I-250000J0D01*
G01*
X134655000Y-87589000D01*
G75*
G02*
X134405000Y-87339000I0J250000D01*
G01*
X134405000Y-85889000D01*
G75*
G02*
X134655000Y-85639000I250000J0D01*
G01*
X135855000Y-85639000D01*
G75*
G02*
X136105000Y-85889000I0J-250000D01*
G01*
G37*
D11*
X132755000Y-86614000D03*
X130255000Y-86614000D03*
X127755000Y-86614000D03*
D12*
X136855000Y-84614000D03*
%TD*%
%TO.C,R1*%
G36*
G01*
X108134998Y-98507500D02*
X109035002Y-98507500D01*
G75*
G02*
X109285000Y-98757498I0J-249998D01*
G01*
X109285000Y-99282502D01*
G75*
G02*
X109035002Y-99532500I-249998J0D01*
G01*
X108134998Y-99532500D01*
G75*
G02*
X107885000Y-99282502I0J249998D01*
G01*
X107885000Y-98757498D01*
G75*
G02*
X108134998Y-98507500I249998J0D01*
G01*
G37*
G36*
G01*
X108134998Y-96682500D02*
X109035002Y-96682500D01*
G75*
G02*
X109285000Y-96932498I0J-249998D01*
G01*
X109285000Y-97457502D01*
G75*
G02*
X109035002Y-97707500I-249998J0D01*
G01*
X108134998Y-97707500D01*
G75*
G02*
X107885000Y-97457502I0J249998D01*
G01*
X107885000Y-96932498D01*
G75*
G02*
X108134998Y-96682500I249998J0D01*
G01*
G37*
%TD*%
%TO.C,R2*%
G36*
G01*
X112223500Y-93604502D02*
X112223500Y-92704498D01*
G75*
G02*
X112473498Y-92454500I249998J0D01*
G01*
X112998502Y-92454500D01*
G75*
G02*
X113248500Y-92704498I0J-249998D01*
G01*
X113248500Y-93604502D01*
G75*
G02*
X112998502Y-93854500I-249998J0D01*
G01*
X112473498Y-93854500D01*
G75*
G02*
X112223500Y-93604502I0J249998D01*
G01*
G37*
G36*
G01*
X110398500Y-93604502D02*
X110398500Y-92704498D01*
G75*
G02*
X110648498Y-92454500I249998J0D01*
G01*
X111173502Y-92454500D01*
G75*
G02*
X111423500Y-92704498I0J-249998D01*
G01*
X111423500Y-93604502D01*
G75*
G02*
X111173502Y-93854500I-249998J0D01*
G01*
X110648498Y-93854500D01*
G75*
G02*
X110398500Y-93604502I0J249998D01*
G01*
G37*
%TD*%
%TO.C,R3*%
G36*
G01*
X114582000Y-103816998D02*
X114582000Y-104717002D01*
G75*
G02*
X114332002Y-104967000I-249998J0D01*
G01*
X113806998Y-104967000D01*
G75*
G02*
X113557000Y-104717002I0J249998D01*
G01*
X113557000Y-103816998D01*
G75*
G02*
X113806998Y-103567000I249998J0D01*
G01*
X114332002Y-103567000D01*
G75*
G02*
X114582000Y-103816998I0J-249998D01*
G01*
G37*
G36*
G01*
X112757000Y-103816998D02*
X112757000Y-104717002D01*
G75*
G02*
X112507002Y-104967000I-249998J0D01*
G01*
X111981998Y-104967000D01*
G75*
G02*
X111732000Y-104717002I0J249998D01*
G01*
X111732000Y-103816998D01*
G75*
G02*
X111981998Y-103567000I249998J0D01*
G01*
X112507002Y-103567000D01*
G75*
G02*
X112757000Y-103816998I0J-249998D01*
G01*
G37*
%TD*%
%TO.C,R4*%
G36*
G01*
X114623002Y-91658500D02*
X113722998Y-91658500D01*
G75*
G02*
X113473000Y-91408502I0J249998D01*
G01*
X113473000Y-90883498D01*
G75*
G02*
X113722998Y-90633500I249998J0D01*
G01*
X114623002Y-90633500D01*
G75*
G02*
X114873000Y-90883498I0J-249998D01*
G01*
X114873000Y-91408502D01*
G75*
G02*
X114623002Y-91658500I-249998J0D01*
G01*
G37*
G36*
G01*
X114623002Y-89833500D02*
X113722998Y-89833500D01*
G75*
G02*
X113473000Y-89583502I0J249998D01*
G01*
X113473000Y-89058498D01*
G75*
G02*
X113722998Y-88808500I249998J0D01*
G01*
X114623002Y-88808500D01*
G75*
G02*
X114873000Y-89058498I0J-249998D01*
G01*
X114873000Y-89583502D01*
G75*
G02*
X114623002Y-89833500I-249998J0D01*
G01*
G37*
%TD*%
%TO.C,R5*%
G36*
G01*
X124170500Y-90862998D02*
X124170500Y-91763002D01*
G75*
G02*
X123920502Y-92013000I-249998J0D01*
G01*
X123395498Y-92013000D01*
G75*
G02*
X123145500Y-91763002I0J249998D01*
G01*
X123145500Y-90862998D01*
G75*
G02*
X123395498Y-90613000I249998J0D01*
G01*
X123920502Y-90613000D01*
G75*
G02*
X124170500Y-90862998I0J-249998D01*
G01*
G37*
G36*
G01*
X122345500Y-90862998D02*
X122345500Y-91763002D01*
G75*
G02*
X122095502Y-92013000I-249998J0D01*
G01*
X121570498Y-92013000D01*
G75*
G02*
X121320500Y-91763002I0J249998D01*
G01*
X121320500Y-90862998D01*
G75*
G02*
X121570498Y-90613000I249998J0D01*
G01*
X122095502Y-90613000D01*
G75*
G02*
X122345500Y-90862998I0J-249998D01*
G01*
G37*
%TD*%
%TO.C,R6*%
G36*
G01*
X122345500Y-92831498D02*
X122345500Y-93731502D01*
G75*
G02*
X122095502Y-93981500I-249998J0D01*
G01*
X121570498Y-93981500D01*
G75*
G02*
X121320500Y-93731502I0J249998D01*
G01*
X121320500Y-92831498D01*
G75*
G02*
X121570498Y-92581500I249998J0D01*
G01*
X122095502Y-92581500D01*
G75*
G02*
X122345500Y-92831498I0J-249998D01*
G01*
G37*
G36*
G01*
X124170500Y-92831498D02*
X124170500Y-93731502D01*
G75*
G02*
X123920502Y-93981500I-249998J0D01*
G01*
X123395498Y-93981500D01*
G75*
G02*
X123145500Y-93731502I0J249998D01*
G01*
X123145500Y-92831498D01*
G75*
G02*
X123395498Y-92581500I249998J0D01*
G01*
X123920502Y-92581500D01*
G75*
G02*
X124170500Y-92831498I0J-249998D01*
G01*
G37*
%TD*%
%TO.C,R7*%
G36*
G01*
X134550998Y-91285000D02*
X135451002Y-91285000D01*
G75*
G02*
X135701000Y-91534998I0J-249998D01*
G01*
X135701000Y-92060002D01*
G75*
G02*
X135451002Y-92310000I-249998J0D01*
G01*
X134550998Y-92310000D01*
G75*
G02*
X134301000Y-92060002I0J249998D01*
G01*
X134301000Y-91534998D01*
G75*
G02*
X134550998Y-91285000I249998J0D01*
G01*
G37*
G36*
G01*
X134550998Y-93110000D02*
X135451002Y-93110000D01*
G75*
G02*
X135701000Y-93359998I0J-249998D01*
G01*
X135701000Y-93885002D01*
G75*
G02*
X135451002Y-94135000I-249998J0D01*
G01*
X134550998Y-94135000D01*
G75*
G02*
X134301000Y-93885002I0J249998D01*
G01*
X134301000Y-93359998D01*
G75*
G02*
X134550998Y-93110000I249998J0D01*
G01*
G37*
%TD*%
D13*
%TO.C,U1*%
X115007500Y-92789500D03*
X115007500Y-93289500D03*
X115007500Y-93789500D03*
X115007500Y-94289500D03*
X115007500Y-94789500D03*
X119307500Y-94789500D03*
X119307500Y-94289500D03*
X119307500Y-93789500D03*
X119307500Y-93289500D03*
X119307500Y-92789500D03*
%TD*%
D14*
%TO.C,U2*%
X131259000Y-99308000D03*
X131259000Y-100108000D03*
X131259000Y-100908000D03*
X131259000Y-101708000D03*
X131259000Y-102508000D03*
X131259000Y-103308000D03*
X131259000Y-104108000D03*
X131259000Y-104908000D03*
D15*
X132709000Y-106358000D03*
X133509000Y-106358000D03*
X134309000Y-106358000D03*
X135109000Y-106358000D03*
X135909000Y-106358000D03*
X136709000Y-106358000D03*
X137509000Y-106358000D03*
X138309000Y-106358000D03*
D14*
X139759000Y-104908000D03*
X139759000Y-104108000D03*
X139759000Y-103308000D03*
X139759000Y-102508000D03*
X139759000Y-101708000D03*
X139759000Y-100908000D03*
X139759000Y-100108000D03*
X139759000Y-99308000D03*
D15*
X138309000Y-97858000D03*
X137509000Y-97858000D03*
X136709000Y-97858000D03*
X135909000Y-97858000D03*
X135109000Y-97858000D03*
X134309000Y-97858000D03*
X133509000Y-97858000D03*
X132709000Y-97858000D03*
%TD*%
D16*
%TO.C,Y1*%
X125546500Y-105336000D03*
X125546500Y-102436000D03*
X123246500Y-102436000D03*
X123246500Y-105336000D03*
%TD*%
%TO.C,J1*%
G36*
G01*
X104230000Y-102323000D02*
X102780000Y-102323000D01*
G75*
G02*
X102530000Y-102073000I0J250000D01*
G01*
X102530000Y-100873000D01*
G75*
G02*
X102780000Y-100623000I250000J0D01*
G01*
X104230000Y-100623000D01*
G75*
G02*
X104480000Y-100873000I0J-250000D01*
G01*
X104480000Y-102073000D01*
G75*
G02*
X104230000Y-102323000I-250000J0D01*
G01*
G37*
D17*
X103505000Y-98973000D03*
X103505000Y-96473000D03*
D12*
X105505000Y-103073000D03*
%TD*%
D18*
%TO.C,H1*%
X104775000Y-111633000D03*
D19*
X107400000Y-111633000D03*
X106631155Y-113489155D03*
X104775000Y-114258000D03*
X102918845Y-113489155D03*
X102150000Y-111633000D03*
X102918845Y-109776845D03*
X104775000Y-109008000D03*
X106631155Y-109776845D03*
%TD*%
%TO.C,H2*%
X156669155Y-109776845D03*
X154813000Y-109008000D03*
X152956845Y-109776845D03*
X152188000Y-111633000D03*
X152956845Y-113489155D03*
X154813000Y-114258000D03*
X156669155Y-113489155D03*
X157438000Y-111633000D03*
D18*
X154813000Y-111633000D03*
%TD*%
%TO.C,H3*%
X154813000Y-86550500D03*
D19*
X157438000Y-86550500D03*
X156669155Y-88406655D03*
X154813000Y-89175500D03*
X152956845Y-88406655D03*
X152188000Y-86550500D03*
X152956845Y-84694345D03*
X154813000Y-83925500D03*
X156669155Y-84694345D03*
%TD*%
D18*
%TO.C,H4*%
X104775000Y-86550500D03*
D19*
X107400000Y-86550500D03*
X106631155Y-88406655D03*
X104775000Y-89175500D03*
X102918845Y-88406655D03*
X102150000Y-86550500D03*
X102918845Y-84694345D03*
X104775000Y-83925500D03*
X106631155Y-84694345D03*
%TD*%
M02*
