G04 EAGLE Gerber RS-274X export*
G75*
%MOMM*%
%FSLAX34Y34*%
%LPD*%
%INSolderpaste Top*%
%IPPOS*%
%AMOC8*
5,1,8,0,0,1.08239X$1,22.5*%
G01*
%ADD10C,0.550000*%
%ADD11R,0.550000X1.270000*%
%ADD12R,1.270000X0.550000*%
%ADD13R,1.500000X1.300000*%
%ADD14R,1.400000X1.200000*%
%ADD15R,1.300000X1.500000*%
%ADD16R,1.600000X1.803000*%
%ADD17R,1.803000X1.600000*%
%ADD18R,2.150000X0.950000*%
%ADD19R,2.150000X3.250000*%
%ADD20R,1.600000X1.800000*%


D10*
X362800Y386974D02*
X362800Y394174D01*
D11*
X370800Y390574D03*
X378800Y390574D03*
X386800Y390574D03*
X394800Y390574D03*
X402800Y390574D03*
X410800Y390574D03*
X418800Y390574D03*
D12*
X433726Y405500D03*
X433726Y413500D03*
X433726Y421500D03*
X433726Y429500D03*
X433726Y437500D03*
X433726Y445500D03*
X433726Y453500D03*
X433726Y461500D03*
D11*
X418800Y476426D03*
X410800Y476426D03*
X402800Y476426D03*
X394800Y476426D03*
X386800Y476426D03*
X378800Y476426D03*
X370800Y476426D03*
X362800Y476426D03*
D12*
X347874Y461500D03*
X347874Y453500D03*
X347874Y445500D03*
X347874Y437500D03*
X347874Y429500D03*
X347874Y421500D03*
X347874Y413500D03*
X347874Y405500D03*
D13*
X357800Y363000D03*
X357800Y344000D03*
X445800Y344000D03*
X445800Y363000D03*
D14*
X389800Y361500D03*
X389800Y345500D03*
X411800Y345500D03*
X411800Y361500D03*
D15*
X431300Y283500D03*
X450300Y283500D03*
X311300Y503500D03*
X330300Y503500D03*
X430300Y227500D03*
X449300Y227500D03*
X332300Y607500D03*
X351300Y607500D03*
D16*
X326580Y643500D03*
X355020Y643500D03*
D13*
X555000Y234500D03*
X555000Y253500D03*
X575000Y304500D03*
X575000Y285500D03*
D15*
X690500Y250000D03*
X709500Y250000D03*
D13*
X554000Y204500D03*
X554000Y185500D03*
D17*
X710000Y285780D03*
X710000Y314220D03*
D18*
X1561000Y633000D03*
X1561000Y610000D03*
X1561000Y587000D03*
D19*
X1619000Y610000D03*
D20*
X1566000Y670000D03*
X1594000Y670000D03*
D15*
X1560500Y550000D03*
X1579500Y550000D03*
D13*
X775000Y234500D03*
X775000Y253500D03*
X795000Y304500D03*
X795000Y285500D03*
D15*
X910500Y250000D03*
X929500Y250000D03*
D13*
X774000Y204500D03*
X774000Y185500D03*
D17*
X930000Y285780D03*
X930000Y314220D03*
D13*
X995000Y234500D03*
X995000Y253500D03*
X1015000Y304500D03*
X1015000Y285500D03*
D15*
X1130500Y250000D03*
X1149500Y250000D03*
D13*
X994000Y204500D03*
X994000Y185500D03*
D17*
X1150000Y285780D03*
X1150000Y314220D03*
D13*
X1215000Y234500D03*
X1215000Y253500D03*
X1235000Y304500D03*
X1235000Y285500D03*
D15*
X1350500Y250000D03*
X1369500Y250000D03*
D13*
X1214000Y204500D03*
X1214000Y185500D03*
D17*
X1370000Y285780D03*
X1370000Y314220D03*
D13*
X1435000Y234500D03*
X1435000Y253500D03*
X1455000Y304500D03*
X1455000Y285500D03*
D15*
X1570500Y250000D03*
X1589500Y250000D03*
D13*
X1434000Y204500D03*
X1434000Y185500D03*
D17*
X1590000Y285780D03*
X1590000Y314220D03*
D13*
X1495000Y615500D03*
X1495000Y596500D03*
X1475000Y545500D03*
X1475000Y564500D03*
D15*
X1359500Y600000D03*
X1340500Y600000D03*
D13*
X1496000Y645500D03*
X1496000Y664500D03*
D17*
X1340000Y564220D03*
X1340000Y535780D03*
D13*
X1275000Y615500D03*
X1275000Y596500D03*
X1255000Y545500D03*
X1255000Y564500D03*
D15*
X1139500Y600000D03*
X1120500Y600000D03*
D13*
X1276000Y645500D03*
X1276000Y664500D03*
D17*
X1120000Y564220D03*
X1120000Y535780D03*
D13*
X1055000Y615500D03*
X1055000Y596500D03*
X1035000Y545500D03*
X1035000Y564500D03*
D15*
X919500Y600000D03*
X900500Y600000D03*
D13*
X1056000Y645500D03*
X1056000Y664500D03*
D17*
X900000Y564220D03*
X900000Y535780D03*
D13*
X835000Y615500D03*
X835000Y596500D03*
X815000Y545500D03*
X815000Y564500D03*
D15*
X699500Y600000D03*
X680500Y600000D03*
D13*
X836000Y645500D03*
X836000Y664500D03*
D17*
X680000Y564220D03*
X680000Y535780D03*
D13*
X615000Y615500D03*
X615000Y596500D03*
X595000Y545500D03*
X595000Y564500D03*
D15*
X479500Y600000D03*
X460500Y600000D03*
D13*
X616000Y645500D03*
X616000Y664500D03*
D17*
X460000Y564220D03*
X460000Y535780D03*
M02*
