G04 EAGLE Gerber RS-274X export*
G75*
%MOMM*%
%FSLAX34Y34*%
%LPD*%
%IN*%
%IPPOS*%
%AMOC8*
5,1,8,0,0,1.08239X$1,22.5*%
G01*
%ADD10C,0.254000*%


D10*
X0Y0D02*
X231000Y0D01*
X231000Y330000D01*
X0Y330000D01*
X0Y0D01*
X107000Y39443D02*
X106927Y38333D01*
X106782Y37229D01*
X106565Y36138D01*
X106277Y35063D01*
X105919Y34009D01*
X105493Y32980D01*
X105001Y31982D01*
X104444Y31018D01*
X103826Y30093D01*
X103148Y29210D01*
X102414Y28373D01*
X101627Y27586D01*
X100790Y26852D01*
X99907Y26174D01*
X98982Y25556D01*
X98018Y24999D01*
X97020Y24507D01*
X95991Y24081D01*
X94937Y23723D01*
X93862Y23435D01*
X92771Y23218D01*
X91667Y23073D01*
X90557Y23000D01*
X89443Y23000D01*
X88333Y23073D01*
X87229Y23218D01*
X86138Y23435D01*
X85063Y23723D01*
X84009Y24081D01*
X82980Y24507D01*
X81982Y24999D01*
X81018Y25556D01*
X80093Y26174D01*
X79210Y26852D01*
X78373Y27586D01*
X77586Y28373D01*
X76852Y29210D01*
X76174Y30093D01*
X75556Y31018D01*
X74999Y31982D01*
X74507Y32980D01*
X74081Y34009D01*
X73723Y35063D01*
X73435Y36138D01*
X73218Y37229D01*
X73073Y38333D01*
X73000Y39443D01*
X73000Y40557D01*
X73073Y41667D01*
X73218Y42771D01*
X73435Y43862D01*
X73723Y44937D01*
X74081Y45991D01*
X74507Y47020D01*
X74999Y48018D01*
X75556Y48982D01*
X76174Y49907D01*
X76852Y50790D01*
X77586Y51627D01*
X78373Y52414D01*
X79210Y53148D01*
X80093Y53826D01*
X81018Y54444D01*
X81982Y55001D01*
X82980Y55493D01*
X84009Y55919D01*
X85063Y56277D01*
X86138Y56565D01*
X87229Y56782D01*
X88333Y56927D01*
X89443Y57000D01*
X90557Y57000D01*
X91667Y56927D01*
X92771Y56782D01*
X93862Y56565D01*
X94937Y56277D01*
X95991Y55919D01*
X97020Y55493D01*
X98018Y55001D01*
X98982Y54444D01*
X99907Y53826D01*
X100790Y53148D01*
X101627Y52414D01*
X102414Y51627D01*
X103148Y50790D01*
X103826Y49907D01*
X104444Y48982D01*
X105001Y48018D01*
X105493Y47020D01*
X105919Y45991D01*
X106277Y44937D01*
X106565Y43862D01*
X106782Y42771D01*
X106927Y41667D01*
X107000Y40557D01*
X107000Y39443D01*
X107000Y289443D02*
X106927Y288333D01*
X106782Y287229D01*
X106565Y286138D01*
X106277Y285063D01*
X105919Y284009D01*
X105493Y282980D01*
X105001Y281982D01*
X104444Y281018D01*
X103826Y280093D01*
X103148Y279210D01*
X102414Y278373D01*
X101627Y277586D01*
X100790Y276852D01*
X99907Y276174D01*
X98982Y275556D01*
X98018Y274999D01*
X97020Y274507D01*
X95991Y274081D01*
X94937Y273723D01*
X93862Y273435D01*
X92771Y273218D01*
X91667Y273073D01*
X90557Y273000D01*
X89443Y273000D01*
X88333Y273073D01*
X87229Y273218D01*
X86138Y273435D01*
X85063Y273723D01*
X84009Y274081D01*
X82980Y274507D01*
X81982Y274999D01*
X81018Y275556D01*
X80093Y276174D01*
X79210Y276852D01*
X78373Y277586D01*
X77586Y278373D01*
X76852Y279210D01*
X76174Y280093D01*
X75556Y281018D01*
X74999Y281982D01*
X74507Y282980D01*
X74081Y284009D01*
X73723Y285063D01*
X73435Y286138D01*
X73218Y287229D01*
X73073Y288333D01*
X73000Y289443D01*
X73000Y290557D01*
X73073Y291667D01*
X73218Y292771D01*
X73435Y293862D01*
X73723Y294937D01*
X74081Y295991D01*
X74507Y297020D01*
X74999Y298018D01*
X75556Y298982D01*
X76174Y299907D01*
X76852Y300790D01*
X77586Y301627D01*
X78373Y302414D01*
X79210Y303148D01*
X80093Y303826D01*
X81018Y304444D01*
X81982Y305001D01*
X82980Y305493D01*
X84009Y305919D01*
X85063Y306277D01*
X86138Y306565D01*
X87229Y306782D01*
X88333Y306927D01*
X89443Y307000D01*
X90557Y307000D01*
X91667Y306927D01*
X92771Y306782D01*
X93862Y306565D01*
X94937Y306277D01*
X95991Y305919D01*
X97020Y305493D01*
X98018Y305001D01*
X98982Y304444D01*
X99907Y303826D01*
X100790Y303148D01*
X101627Y302414D01*
X102414Y301627D01*
X103148Y300790D01*
X103826Y299907D01*
X104444Y298982D01*
X105001Y298018D01*
X105493Y297020D01*
X105919Y295991D01*
X106277Y294937D01*
X106565Y293862D01*
X106782Y292771D01*
X106927Y291667D01*
X107000Y290557D01*
X107000Y289443D01*
M02*
