G04 EAGLE Gerber RS-274X export*
G75*
%MOMM*%
%FSLAX34Y34*%
%LPD*%
%INSoldermask Top*%
%IPPOS*%
%AMOC8*
5,1,8,0,0,1.08239X$1,22.5*%
G01*
%ADD10C,3.603200*%
%ADD11C,1.727200*%
%ADD12C,1.546600*%


D10*
X90000Y40000D03*
X90000Y290000D03*
D11*
X45120Y155800D02*
X29880Y155800D01*
X29880Y130400D02*
X45120Y130400D01*
X45120Y105000D02*
X29880Y105000D01*
X29880Y181200D02*
X45120Y181200D01*
X45120Y206600D02*
X29880Y206600D01*
X29880Y232000D02*
X45120Y232000D01*
D12*
X86500Y188100D03*
X86500Y162700D03*
X86500Y137300D03*
X86500Y111900D03*
X213500Y111900D03*
X213500Y137300D03*
X213500Y162700D03*
X213500Y188100D03*
M02*
