G04 EAGLE Gerber RS-274X export*
G75*
%MOMM*%
%FSLAX34Y34*%
%LPD*%
%INSoldermask Bottom*%
%IPPOS*%
%AMOC8*
5,1,8,0,0,1.08239X$1,22.5*%
G01*
%ADD10C,3.603200*%
%ADD11C,1.727200*%
%ADD12R,1.763200X1.763200*%
%ADD13C,1.763200*%
%ADD14C,2.082800*%
%ADD15R,2.082800X2.082800*%
%ADD16R,2.603200X2.603200*%
%ADD17C,2.603200*%
%ADD18C,0.959600*%


D10*
X60000Y60000D03*
X810000Y810000D03*
X810000Y60000D03*
X60000Y810000D03*
D11*
X677300Y802380D02*
X677300Y817620D01*
X651900Y817620D02*
X651900Y802380D01*
X626500Y802380D02*
X626500Y817620D01*
X702700Y817620D02*
X702700Y802380D01*
X728100Y802380D02*
X728100Y817620D01*
X753500Y817620D02*
X753500Y802380D01*
X677300Y747620D02*
X677300Y732380D01*
X651900Y732380D02*
X651900Y747620D01*
X626500Y747620D02*
X626500Y732380D01*
X702700Y732380D02*
X702700Y747620D01*
X728100Y747620D02*
X728100Y732380D01*
X753500Y732380D02*
X753500Y747620D01*
X677300Y677620D02*
X677300Y662380D01*
X651900Y662380D02*
X651900Y677620D01*
X626500Y677620D02*
X626500Y662380D01*
X702700Y662380D02*
X702700Y677620D01*
X728100Y677620D02*
X728100Y662380D01*
X753500Y662380D02*
X753500Y677620D01*
D12*
X417000Y102400D03*
D13*
X417000Y127800D03*
X417000Y559600D03*
X417000Y153200D03*
X417000Y178600D03*
X417000Y204000D03*
X417000Y229400D03*
X417000Y254800D03*
X417000Y280200D03*
X417000Y305600D03*
X417000Y331000D03*
X417000Y356400D03*
X417000Y381800D03*
X417000Y407200D03*
X417000Y432600D03*
X417000Y458000D03*
X417000Y483400D03*
X417000Y508800D03*
X417000Y534200D03*
X163000Y102400D03*
X163000Y127800D03*
X163000Y153200D03*
X163000Y178600D03*
X163000Y204000D03*
X163000Y229400D03*
X163000Y254800D03*
X163000Y280200D03*
X163000Y305600D03*
X163000Y331000D03*
X163000Y356400D03*
X163000Y381800D03*
X163000Y407200D03*
X163000Y432600D03*
X163000Y458000D03*
X163000Y483400D03*
X163000Y508800D03*
X163000Y534200D03*
X163000Y559600D03*
D11*
X677300Y592380D02*
X677300Y607620D01*
X651900Y607620D02*
X651900Y592380D01*
X626500Y592380D02*
X626500Y607620D01*
X702700Y607620D02*
X702700Y592380D01*
X728100Y592380D02*
X728100Y607620D01*
X753500Y607620D02*
X753500Y592380D01*
X677300Y537620D02*
X677300Y522380D01*
X651900Y522380D02*
X651900Y537620D01*
X626500Y537620D02*
X626500Y522380D01*
X702700Y522380D02*
X702700Y537620D01*
X728100Y537620D02*
X728100Y522380D01*
X753500Y522380D02*
X753500Y537620D01*
X677300Y467620D02*
X677300Y452380D01*
X651900Y452380D02*
X651900Y467620D01*
X626500Y467620D02*
X626500Y452380D01*
X702700Y452380D02*
X702700Y467620D01*
X728100Y467620D02*
X728100Y452380D01*
X753500Y452380D02*
X753500Y467620D01*
X677300Y397620D02*
X677300Y382380D01*
X651900Y382380D02*
X651900Y397620D01*
X626500Y397620D02*
X626500Y382380D01*
X702700Y382380D02*
X702700Y397620D01*
X728100Y397620D02*
X728100Y382380D01*
X753500Y382380D02*
X753500Y397620D01*
X677300Y327620D02*
X677300Y312380D01*
X651900Y312380D02*
X651900Y327620D01*
X626500Y327620D02*
X626500Y312380D01*
X702700Y312380D02*
X702700Y327620D01*
X728100Y327620D02*
X728100Y312380D01*
X753500Y312380D02*
X753500Y327620D01*
X677300Y257620D02*
X677300Y242380D01*
X651900Y242380D02*
X651900Y257620D01*
X626500Y257620D02*
X626500Y242380D01*
X702700Y242380D02*
X702700Y257620D01*
X728100Y257620D02*
X728100Y242380D01*
X753500Y242380D02*
X753500Y257620D01*
X677300Y187620D02*
X677300Y172380D01*
X651900Y172380D02*
X651900Y187620D01*
X626500Y187620D02*
X626500Y172380D01*
X702700Y172380D02*
X702700Y187620D01*
X728100Y187620D02*
X728100Y172380D01*
X753500Y172380D02*
X753500Y187620D01*
X677300Y117620D02*
X677300Y102380D01*
X651900Y102380D02*
X651900Y117620D01*
X626500Y117620D02*
X626500Y102380D01*
X702700Y102380D02*
X702700Y117620D01*
X728100Y117620D02*
X728100Y102380D01*
X753500Y102380D02*
X753500Y117620D01*
X677300Y47620D02*
X677300Y32380D01*
X651900Y32380D02*
X651900Y47620D01*
X626500Y47620D02*
X626500Y32380D01*
X702700Y32380D02*
X702700Y47620D01*
X728100Y47620D02*
X728100Y32380D01*
X753500Y32380D02*
X753500Y47620D01*
D14*
X47300Y641300D03*
X72700Y641300D03*
X47300Y615900D03*
X72700Y615900D03*
X47300Y590500D03*
X72700Y590500D03*
X47300Y565100D03*
X72700Y565100D03*
X47300Y539700D03*
X72700Y539700D03*
X47300Y514300D03*
X72700Y514300D03*
X47300Y488900D03*
X72700Y488900D03*
X47300Y463500D03*
X72700Y463500D03*
X47300Y438100D03*
X72700Y438100D03*
X47300Y412700D03*
X72700Y412700D03*
X47300Y387300D03*
X72700Y387300D03*
X47300Y361900D03*
X72700Y361900D03*
X47300Y336500D03*
X72700Y336500D03*
X47300Y311100D03*
X72700Y311100D03*
X47300Y285700D03*
X72700Y285700D03*
X47300Y260300D03*
X72700Y260300D03*
X47300Y234900D03*
X72700Y234900D03*
X47300Y209500D03*
X72700Y209500D03*
X47300Y184100D03*
X72700Y184100D03*
X47300Y158700D03*
X72700Y158700D03*
D15*
X70000Y740000D03*
D14*
X95400Y740000D03*
X120800Y740000D03*
X146200Y740000D03*
D16*
X210000Y790000D03*
D17*
X260800Y790000D03*
X311600Y790000D03*
D18*
X641905Y619014D03*
X580000Y520000D03*
X550000Y290000D03*
X580000Y330000D03*
X125000Y329000D03*
X124000Y369000D03*
X430106Y410000D03*
X446000Y390000D03*
X460000Y440000D03*
X390000Y450000D03*
X460000Y160000D03*
X408533Y168533D03*
X330000Y200000D03*
X380000Y210000D03*
X594116Y626570D03*
X481976Y671976D03*
X490000Y650000D03*
X500000Y100000D03*
X493000Y79000D03*
X450000Y100000D03*
X460000Y380000D03*
X470000Y400000D03*
X450000Y150000D03*
X450000Y430000D03*
X450000Y338694D03*
X490000Y60000D03*
X437932Y107932D03*
X438000Y141000D03*
X438000Y350000D03*
X438000Y380000D03*
X180000Y120000D03*
X380000Y100000D03*
X457556Y620000D03*
X490000Y620000D03*
X170343Y589657D03*
X470000Y560000D03*
X490000Y370000D03*
X500000Y340000D03*
X500343Y329657D03*
X500000Y360000D03*
X490343Y609657D03*
X140000Y580000D03*
X390000Y40000D03*
X410000Y40000D03*
X400000Y270000D03*
X739187Y620813D03*
X550000Y620000D03*
X761306Y570000D03*
X550000Y610000D03*
X729657Y290343D03*
X720343Y340343D03*
X580046Y300046D03*
X530000Y100000D03*
X640000Y140000D03*
X510000Y73662D03*
X500000Y70000D03*
X510000Y82750D03*
X390000Y300000D03*
X60000Y670000D03*
M02*
