<?xml version="1.0" encoding="utf-8"?>
<!DOCTYPE eagle SYSTEM "eagle.dtd">
<eagle version="9.6.2">
<drawing>
<settings>
<setting alwaysvectorfont="no"/>
<setting keepoldvectorfont="yes"/>
<setting verticaltext="up"/>
</settings>
<grid distance="0.1" unitdist="inch" unit="inch" style="lines" multiple="1" display="no" altdistance="0.01" altunitdist="inch" altunit="inch"/>
<layers>
<layer number="1" name="Top" color="4" fill="1" visible="yes" active="yes"/>
<layer number="16" name="Bottom" color="1" fill="1" visible="yes" active="yes"/>
<layer number="17" name="Pads" color="2" fill="1" visible="yes" active="yes"/>
<layer number="18" name="Vias" color="2" fill="1" visible="yes" active="yes"/>
<layer number="19" name="Unrouted" color="6" fill="1" visible="yes" active="yes"/>
<layer number="20" name="Dimension" color="15" fill="1" visible="yes" active="yes"/>
<layer number="21" name="tPlace" color="7" fill="1" visible="yes" active="yes"/>
<layer number="22" name="bPlace" color="7" fill="1" visible="yes" active="yes"/>
<layer number="23" name="tOrigins" color="15" fill="1" visible="yes" active="yes"/>
<layer number="24" name="bOrigins" color="15" fill="1" visible="yes" active="yes"/>
<layer number="25" name="tNames" color="7" fill="1" visible="yes" active="yes"/>
<layer number="26" name="bNames" color="7" fill="1" visible="yes" active="yes"/>
<layer number="27" name="tValues" color="7" fill="1" visible="yes" active="yes"/>
<layer number="28" name="bValues" color="7" fill="1" visible="yes" active="yes"/>
<layer number="29" name="tStop" color="7" fill="3" visible="no" active="yes"/>
<layer number="30" name="bStop" color="7" fill="6" visible="no" active="yes"/>
<layer number="31" name="tCream" color="7" fill="4" visible="no" active="yes"/>
<layer number="32" name="bCream" color="7" fill="5" visible="no" active="yes"/>
<layer number="33" name="tFinish" color="6" fill="3" visible="no" active="yes"/>
<layer number="34" name="bFinish" color="6" fill="6" visible="no" active="yes"/>
<layer number="35" name="tGlue" color="7" fill="4" visible="no" active="yes"/>
<layer number="36" name="bGlue" color="7" fill="5" visible="no" active="yes"/>
<layer number="37" name="tTest" color="7" fill="1" visible="no" active="yes"/>
<layer number="38" name="bTest" color="7" fill="1" visible="no" active="yes"/>
<layer number="39" name="tKeepout" color="4" fill="11" visible="yes" active="yes"/>
<layer number="40" name="bKeepout" color="1" fill="11" visible="yes" active="yes"/>
<layer number="41" name="tRestrict" color="4" fill="10" visible="yes" active="yes"/>
<layer number="42" name="bRestrict" color="1" fill="10" visible="yes" active="yes"/>
<layer number="43" name="vRestrict" color="2" fill="10" visible="yes" active="yes"/>
<layer number="44" name="Drills" color="7" fill="1" visible="no" active="yes"/>
<layer number="45" name="Holes" color="7" fill="1" visible="no" active="yes"/>
<layer number="46" name="Milling" color="3" fill="1" visible="no" active="yes"/>
<layer number="47" name="Measures" color="7" fill="1" visible="no" active="yes"/>
<layer number="48" name="Document" color="7" fill="1" visible="yes" active="yes"/>
<layer number="49" name="Reference" color="7" fill="1" visible="yes" active="yes"/>
<layer number="51" name="tDocu" color="7" fill="1" visible="yes" active="yes"/>
<layer number="52" name="bDocu" color="7" fill="1" visible="yes" active="yes"/>
<layer number="90" name="Modules" color="5" fill="1" visible="yes" active="yes"/>
<layer number="91" name="Nets" color="2" fill="1" visible="yes" active="yes"/>
<layer number="92" name="Busses" color="1" fill="1" visible="yes" active="yes"/>
<layer number="93" name="Pins" color="2" fill="1" visible="no" active="yes"/>
<layer number="94" name="Symbols" color="4" fill="1" visible="yes" active="yes"/>
<layer number="95" name="Names" color="7" fill="1" visible="yes" active="yes"/>
<layer number="96" name="Values" color="7" fill="1" visible="yes" active="yes"/>
<layer number="97" name="Info" color="7" fill="1" visible="yes" active="yes"/>
<layer number="98" name="Guide" color="6" fill="1" visible="yes" active="yes"/>
<layer number="100" name="AnalogFill" color="16" fill="1" visible="yes" active="yes"/>
</layers>
<library>
<packages>
<package name="E2-5">
<wire x1="-1.524" y1="0" x2="-0.762" y2="0" width="0.1524" layer="51"/>
<wire x1="-0.762" y1="0" x2="-0.762" y2="-1.016" width="0.1524" layer="51"/>
<wire x1="-0.762" y1="-1.016" x2="-0.254" y2="-1.016" width="0.1524" layer="51"/>
<wire x1="-0.254" y1="-1.016" x2="-0.254" y2="1.016" width="0.1524" layer="51"/>
<wire x1="-0.254" y1="1.016" x2="-0.762" y2="1.016" width="0.1524" layer="51"/>
<wire x1="-0.762" y1="1.016" x2="-0.762" y2="0" width="0.1524" layer="51"/>
<wire x1="0.635" y1="0" x2="1.524" y2="0" width="0.1524" layer="51"/>
<wire x1="-1.27" y1="1.778" x2="-0.762" y2="1.778" width="0.1524" layer="21"/>
<wire x1="-1.016" y1="1.524" x2="-1.016" y2="2.032" width="0.1524" layer="21"/>
<circle x="0" y="0" radius="2.54" width="0.1524" layer="21"/>
<pad name="-" x="1.016" y="0" drill="0.8128" first="yes"/>
<pad name="+" x="-1.016" y="0" drill="0.8128" shape="square"/>
<text x="0" y="-1.5875" size="0.8128" layer="25" ratio="15" align="center">&gt;NAME</text>
<rectangle x1="0.254" y1="-1.016" x2="0.762" y2="1.016" layer="51"/>
</package>
<package name="E2,5-7">
<wire x1="-3.048" y1="0" x2="-2.286" y2="0" width="0.1524" layer="21"/>
<wire x1="-2.667" y1="-0.381" x2="-2.667" y2="0.381" width="0.1524" layer="21"/>
<wire x1="-1.651" y1="0" x2="-0.762" y2="0" width="0.1524" layer="51"/>
<wire x1="-0.762" y1="0" x2="-0.762" y2="-1.27" width="0.1524" layer="51"/>
<wire x1="-0.762" y1="-1.27" x2="-0.254" y2="-1.27" width="0.1524" layer="51"/>
<wire x1="-0.254" y1="-1.27" x2="-0.254" y2="1.27" width="0.1524" layer="51"/>
<wire x1="-0.254" y1="1.27" x2="-0.762" y2="1.27" width="0.1524" layer="51"/>
<wire x1="-0.762" y1="1.27" x2="-0.762" y2="0" width="0.1524" layer="51"/>
<wire x1="0.635" y1="0" x2="1.651" y2="0" width="0.1524" layer="51"/>
<circle x="0" y="0" radius="3.429" width="0.1524" layer="21"/>
<pad name="-" x="1.27" y="0" drill="0.8128" first="yes"/>
<pad name="+" x="-1.27" y="0" drill="0.8128" shape="square"/>
<text x="0" y="-1.905" size="0.8128" layer="25" ratio="15" align="center">&gt;NAME</text>
<rectangle x1="0.254" y1="-1.27" x2="0.762" y2="1.27" layer="51"/>
</package>
<package name="E3,5-8">
<wire x1="-3.429" y1="1.143" x2="-2.667" y2="1.143" width="0.1524" layer="21"/>
<wire x1="-3.048" y1="0.762" x2="-3.048" y2="1.524" width="0.1524" layer="21"/>
<wire x1="-1.651" y1="0" x2="-0.762" y2="0" width="0.1524" layer="51"/>
<wire x1="-0.762" y1="0" x2="-0.762" y2="-1.27" width="0.1524" layer="51"/>
<wire x1="-0.762" y1="-1.27" x2="-0.254" y2="-1.27" width="0.1524" layer="51"/>
<wire x1="-0.254" y1="-1.27" x2="-0.254" y2="1.27" width="0.1524" layer="51"/>
<wire x1="-0.254" y1="1.27" x2="-0.762" y2="1.27" width="0.1524" layer="51"/>
<wire x1="-0.762" y1="1.27" x2="-0.762" y2="0" width="0.1524" layer="51"/>
<wire x1="0.635" y1="0" x2="1.651" y2="0" width="0.1524" layer="51"/>
<circle x="0" y="0" radius="4.064" width="0.1524" layer="21"/>
<pad name="-" x="1.778" y="0" drill="0.8128" first="yes"/>
<pad name="+" x="-1.778" y="0" drill="0.8128" shape="square"/>
<text x="0" y="-2.54" size="0.8128" layer="25" ratio="15" align="center">&gt;NAME</text>
<rectangle x1="0.254" y1="-1.27" x2="0.762" y2="1.27" layer="51"/>
</package>
<package name="E25-9">
<description>&lt;b&gt;ELECTROLYTIC CAPACITOR&lt;/b&gt;&lt;p&gt;
grid 25.4 mm, diameter 9 mm</description>
<wire x1="-10.16" y1="4.191" x2="-9.906" y2="4.445" width="0.1524" layer="21"/>
<wire x1="-9.906" y1="4.445" x2="-9.017" y2="4.445" width="0.1524" layer="21"/>
<wire x1="-9.017" y1="4.445" x2="-8.763" y2="4.191" width="0.1524" layer="21"/>
<wire x1="-7.747" y1="4.445" x2="9.906" y2="4.445" width="0.1524" layer="21"/>
<wire x1="-9.906" y1="-4.445" x2="-9.017" y2="-4.445" width="0.1524" layer="21"/>
<wire x1="-7.747" y1="-4.445" x2="9.906" y2="-4.445" width="0.1524" layer="21"/>
<wire x1="-10.16" y1="4.191" x2="-10.16" y2="-4.191" width="0.1524" layer="21"/>
<wire x1="9.906" y1="4.445" x2="10.16" y2="4.191" width="0.1524" layer="21"/>
<wire x1="9.906" y1="-4.445" x2="10.033" y2="-4.318" width="0.1524" layer="21"/>
<wire x1="10.16" y1="-4.191" x2="10.16" y2="4.191" width="0.1524" layer="21"/>
<wire x1="-7.747" y1="4.445" x2="-8.001" y2="4.191" width="0.1524" layer="21"/>
<wire x1="-8.763" y1="4.191" x2="-8.763" y2="3.937" width="0.1524" layer="21"/>
<wire x1="-8.001" y1="4.191" x2="-8.001" y2="3.937" width="0.1524" layer="21"/>
<wire x1="-8.001" y1="4.191" x2="10.16" y2="4.191" width="0.1524" layer="21"/>
<wire x1="-10.16" y1="4.191" x2="-8.763" y2="4.191" width="0.1524" layer="21"/>
<wire x1="-8.001" y1="4.191" x2="-8.763" y2="4.191" width="0.1524" layer="21"/>
<wire x1="-8.763" y1="3.937" x2="-8.001" y2="3.937" width="0.1524" layer="21"/>
<wire x1="-7.747" y1="4.318" x2="9.906" y2="4.318" width="0.3048" layer="21"/>
<wire x1="-9.906" y1="4.318" x2="-9.017" y2="4.318" width="0.3048" layer="21"/>
<wire x1="-8.763" y1="-4.191" x2="-8.763" y2="-4.1402" width="0.1524" layer="21"/>
<wire x1="-8.001" y1="-4.191" x2="-8.001" y2="-4.1402" width="0.1524" layer="21"/>
<wire x1="-8.763" y1="-4.064" x2="-8.763" y2="3.937" width="0.1524" layer="21"/>
<wire x1="-8.001" y1="-4.064" x2="-8.001" y2="3.937" width="0.1524" layer="21"/>
<wire x1="-8.001" y1="-4.191" x2="-8.763" y2="-4.191" width="0.1524" layer="21"/>
<wire x1="-8.763" y1="-4.064" x2="-8.001" y2="-4.064" width="0.1524" layer="21"/>
<wire x1="-6.35" y1="-1.524" x2="-5.842" y2="-1.524" width="0.1524" layer="21"/>
<wire x1="-5.842" y1="-1.524" x2="-5.842" y2="1.524" width="0.1524" layer="21"/>
<wire x1="-5.842" y1="1.524" x2="-6.35" y2="1.524" width="0.1524" layer="21"/>
<wire x1="-7.112" y1="1.27" x2="-7.112" y2="0.508" width="0.1524" layer="21"/>
<wire x1="-7.493" y1="0.889" x2="-6.731" y2="0.889" width="0.1524" layer="21"/>
<wire x1="-6.35" y1="1.524" x2="-6.35" y2="0" width="0.1524" layer="21"/>
<wire x1="-6.35" y1="0" x2="-6.35" y2="-1.524" width="0.1524" layer="21"/>
<wire x1="-4.953" y1="0" x2="9.652" y2="0" width="0.1524" layer="21"/>
<wire x1="-7.493" y1="0" x2="-6.35" y2="0" width="0.1524" layer="21"/>
<wire x1="-10.16" y1="-4.191" x2="-10.033" y2="-4.318" width="0.1524" layer="21"/>
<wire x1="-10.033" y1="-4.318" x2="-9.906" y2="-4.445" width="0.1524" layer="21"/>
<wire x1="-9.017" y1="-4.445" x2="-8.89" y2="-4.318" width="0.1524" layer="21"/>
<wire x1="-8.89" y1="-4.318" x2="-8.763" y2="-4.191" width="0.1524" layer="21"/>
<wire x1="-10.033" y1="-4.318" x2="-8.89" y2="-4.318" width="0.1524" layer="21"/>
<wire x1="-9.906" y1="-4.3942" x2="-9.017" y2="-4.3942" width="0.1524" layer="21"/>
<wire x1="-9.017" y1="-4.3942" x2="-9.017" y2="-4.445" width="0.1524" layer="21"/>
<wire x1="-8.763" y1="-4.1402" x2="-8.001" y2="-4.1402" width="0.1524" layer="21"/>
<wire x1="-8.763" y1="-4.1402" x2="-8.763" y2="-4.064" width="0.1524" layer="21"/>
<wire x1="-8.001" y1="-4.1402" x2="-8.001" y2="-4.064" width="0.1524" layer="21"/>
<wire x1="-7.747" y1="-4.445" x2="-7.874" y2="-4.318" width="0.1524" layer="21"/>
<wire x1="-7.874" y1="-4.318" x2="-8.001" y2="-4.191" width="0.1524" layer="21"/>
<wire x1="-7.747" y1="-4.445" x2="-7.747" y2="-4.3942" width="0.1524" layer="21"/>
<wire x1="-7.747" y1="-4.3942" x2="9.906" y2="-4.3942" width="0.1524" layer="21"/>
<wire x1="-7.874" y1="-4.318" x2="10.033" y2="-4.318" width="0.1524" layer="21"/>
<wire x1="10.033" y1="-4.318" x2="10.16" y2="-4.191" width="0.1524" layer="21"/>
<wire x1="-8.636" y1="4.064" x2="-8.128" y2="4.064" width="0.3048" layer="21"/>
<wire x1="12.7" y1="0" x2="11.049" y2="0" width="0.762" layer="51"/>
<wire x1="-12.7" y1="0" x2="-11.049" y2="0" width="0.762" layer="51"/>
<pad name="+" x="-12.7" y="0" drill="1" shape="square"/>
<pad name="-" x="12.7" y="0" drill="1"/>
<text x="0" y="3.81" size="0.8128" layer="25" ratio="15" rot="R180" align="bottom-center">&gt;NAME</text>
<rectangle x1="-5.334" y1="-1.524" x2="-4.826" y2="1.524" layer="21"/>
<rectangle x1="-11.049" y1="-0.381" x2="-10.16" y2="0.381" layer="21"/>
<rectangle x1="10.16" y1="-0.381" x2="11.049" y2="0.381" layer="21"/>
</package>
<package name="E1,5-4">
<wire x1="-1.524" y1="0" x2="-0.762" y2="0" width="0.1524" layer="51"/>
<wire x1="-0.762" y1="0" x2="-0.762" y2="-1.016" width="0.1524" layer="51"/>
<wire x1="-0.762" y1="-1.016" x2="-0.254" y2="-1.016" width="0.1524" layer="51"/>
<wire x1="-0.254" y1="-1.016" x2="-0.254" y2="1.016" width="0.1524" layer="51"/>
<wire x1="-0.254" y1="1.016" x2="-0.762" y2="1.016" width="0.1524" layer="51"/>
<wire x1="-0.762" y1="1.016" x2="-0.762" y2="0" width="0.1524" layer="51"/>
<wire x1="0.635" y1="0" x2="1.524" y2="0" width="0.1524" layer="51"/>
<wire x1="-1.5875" y1="0.8255" x2="-1.0795" y2="0.8255" width="0.1524" layer="21"/>
<wire x1="-1.3335" y1="0.5715" x2="-1.3335" y2="1.0795" width="0.1524" layer="21"/>
<circle x="0" y="0" radius="2" width="0.1524" layer="21"/>
<pad name="-" x="0.75" y="0" drill="0.6" first="yes"/>
<pad name="+" x="-0.75" y="0" drill="0.6" shape="square"/>
<text x="0" y="-2.54" size="0.8128" layer="25" ratio="15" align="center">&gt;NAME</text>
<rectangle x1="0.254" y1="-1.016" x2="0.762" y2="1.016" layer="51"/>
</package>
<package name="E15-6">
<description>&lt;b&gt;ELECTROLYTIC CAPACITOR&lt;/b&gt;&lt;p&gt;
grid 15.24 mm, diameter 6 mm</description>
<wire x1="-4.064" y1="0" x2="-3.175" y2="0" width="0.1524" layer="21"/>
<wire x1="-3.175" y1="0" x2="-3.175" y2="-1.27" width="0.1524" layer="21"/>
<wire x1="-3.175" y1="-1.27" x2="-2.667" y2="-1.27" width="0.1524" layer="21"/>
<wire x1="-2.667" y1="-1.27" x2="-2.667" y2="1.27" width="0.1524" layer="21"/>
<wire x1="-2.667" y1="1.27" x2="-3.175" y2="1.27" width="0.1524" layer="21"/>
<wire x1="-3.175" y1="1.27" x2="-3.175" y2="0" width="0.1524" layer="21"/>
<wire x1="-1.905" y1="0" x2="5.207" y2="0" width="0.1524" layer="21"/>
<wire x1="-3.81" y1="1.143" x2="-3.81" y2="0.635" width="0.1524" layer="21"/>
<wire x1="-4.064" y1="0.889" x2="-3.556" y2="0.889" width="0.1524" layer="21"/>
<wire x1="-5.715" y1="-2.921" x2="-5.715" y2="2.921" width="0.1524" layer="21"/>
<wire x1="-4.191" y1="3.175" x2="5.461" y2="3.175" width="0.1524" layer="21"/>
<wire x1="5.715" y1="2.921" x2="5.461" y2="3.175" width="0.1524" layer="21"/>
<wire x1="-4.445" y1="2.921" x2="-4.191" y2="3.175" width="0.1524" layer="21"/>
<wire x1="-5.461" y1="3.175" x2="-5.715" y2="2.921" width="0.1524" layer="21"/>
<wire x1="-5.08" y1="3.175" x2="-4.826" y2="2.921" width="0.1524" layer="21"/>
<wire x1="-5.461" y1="3.048" x2="-5.08" y2="3.048" width="0.3048" layer="21"/>
<wire x1="-5.461" y1="3.175" x2="-5.08" y2="3.175" width="0.1524" layer="21"/>
<wire x1="-5.715" y1="2.921" x2="-4.826" y2="2.921" width="0.1524" layer="21"/>
<wire x1="-4.826" y1="2.921" x2="-4.826" y2="2.667" width="0.1524" layer="21"/>
<wire x1="-4.445" y1="2.921" x2="-4.445" y2="2.667" width="0.1524" layer="21"/>
<wire x1="-4.191" y1="3.048" x2="5.461" y2="3.048" width="0.3048" layer="21"/>
<wire x1="-4.445" y1="2.921" x2="5.715" y2="2.921" width="0.1524" layer="21"/>
<wire x1="-4.826" y1="2.667" x2="-4.445" y2="2.667" width="0.1524" layer="21"/>
<wire x1="-4.826" y1="2.921" x2="-4.445" y2="2.921" width="0.1524" layer="21"/>
<wire x1="-4.191" y1="-3.175" x2="5.461" y2="-3.175" width="0.1524" layer="21"/>
<wire x1="-4.826" y1="2.667" x2="-4.826" y2="-2.794" width="0.1524" layer="21"/>
<wire x1="-4.826" y1="-2.794" x2="-4.826" y2="-2.8702" width="0.1524" layer="21"/>
<wire x1="-4.445" y1="2.667" x2="-4.445" y2="-2.794" width="0.1524" layer="21"/>
<wire x1="-4.445" y1="-2.794" x2="-4.445" y2="-2.8702" width="0.1524" layer="21"/>
<wire x1="-4.826" y1="-2.921" x2="-4.445" y2="-2.921" width="0.1524" layer="21"/>
<wire x1="-4.826" y1="-2.794" x2="-4.445" y2="-2.794" width="0.1524" layer="21"/>
<wire x1="5.715" y1="2.921" x2="5.715" y2="-2.921" width="0.1524" layer="21"/>
<wire x1="5.715" y1="-2.921" x2="5.588" y2="-3.048" width="0.1524" layer="21"/>
<wire x1="-5.715" y1="-2.921" x2="-5.588" y2="-3.048" width="0.1524" layer="21"/>
<wire x1="-5.588" y1="-3.048" x2="-5.461" y2="-3.175" width="0.1524" layer="21"/>
<wire x1="-5.08" y1="-3.175" x2="-4.953" y2="-3.048" width="0.1524" layer="21"/>
<wire x1="-4.953" y1="-3.048" x2="-4.826" y2="-2.921" width="0.1524" layer="21"/>
<wire x1="-5.461" y1="-3.175" x2="-5.08" y2="-3.175" width="0.1524" layer="21"/>
<wire x1="-5.588" y1="-3.048" x2="-4.953" y2="-3.048" width="0.1524" layer="21"/>
<wire x1="-4.445" y1="-2.921" x2="-4.318" y2="-3.048" width="0.1524" layer="21"/>
<wire x1="-4.318" y1="-3.048" x2="-4.191" y2="-3.175" width="0.1524" layer="21"/>
<wire x1="-4.318" y1="-3.048" x2="5.588" y2="-3.048" width="0.1524" layer="21"/>
<wire x1="5.588" y1="-3.048" x2="5.461" y2="-3.175" width="0.1524" layer="21"/>
<wire x1="5.461" y1="-3.1242" x2="-4.191" y2="-3.1242" width="0.1524" layer="21"/>
<wire x1="-4.191" y1="-3.1242" x2="-4.191" y2="-3.175" width="0.1524" layer="21"/>
<wire x1="-5.08" y1="-3.1242" x2="-5.461" y2="-3.1242" width="0.1524" layer="21"/>
<wire x1="-5.461" y1="-3.1242" x2="-5.461" y2="-3.175" width="0.1524" layer="21"/>
<wire x1="-4.445" y1="-2.8702" x2="-4.826" y2="-2.8702" width="0.1524" layer="21"/>
<wire x1="-4.445" y1="-2.8702" x2="-4.445" y2="-2.921" width="0.1524" layer="21"/>
<wire x1="-4.826" y1="-2.8702" x2="-4.826" y2="-2.921" width="0.1524" layer="21"/>
<wire x1="-4.699" y1="2.794" x2="-4.572" y2="2.794" width="0.3048" layer="21"/>
<wire x1="7.62" y1="0" x2="6.477" y2="0" width="0.508" layer="51"/>
<wire x1="-7.62" y1="0" x2="-6.477" y2="0" width="0.508" layer="51"/>
<pad name="+" x="-7.62" y="0" drill="0.8128" shape="square"/>
<pad name="-" x="7.62" y="0" drill="0.8128"/>
<text x="0" y="2.54" size="0.8128" layer="25" ratio="15" rot="R180" align="bottom-center">&gt;NAME</text>
<rectangle x1="-2.286" y1="-1.27" x2="-1.778" y2="1.27" layer="21"/>
<rectangle x1="-6.477" y1="-0.254" x2="-5.715" y2="0.254" layer="21"/>
<rectangle x1="5.715" y1="-0.254" x2="6.477" y2="0.254" layer="21"/>
</package>
<package name="SMC_C">
<description>&lt;b&gt;Chip Capacitor &lt;/b&gt; Polar tantalum capacitors with solid electrolyte&lt;p&gt;
Siemens Matsushita Components B 45 194, B 45 197, B 45 198&lt;br&gt;
Source: www.farnell.com/datasheets/247.pdf</description>
<wire x1="-2.85" y1="1.55" x2="2.85" y2="1.55" width="0.1016" layer="51"/>
<wire x1="2.85" y1="1.55" x2="2.85" y2="-1.55" width="0.1016" layer="51"/>
<wire x1="2.85" y1="-1.55" x2="-2.85" y2="-1.55" width="0.1016" layer="51"/>
<wire x1="-2.85" y1="-1.55" x2="-2.85" y2="1.55" width="0.1016" layer="51"/>
<smd name="+" x="-2.5" y="0" dx="2.4" dy="2.4" layer="1"/>
<smd name="-" x="2.5" y="0" dx="2.4" dy="2.4" layer="1" rot="R180"/>
<text x="0" y="2.54" size="0.8128" layer="25" ratio="15" rot="R180" align="bottom-center">&gt;NAME</text>
<rectangle x1="-3" y1="-1.1" x2="-2.8" y2="1.1" layer="51"/>
<rectangle x1="2.8" y1="-1.1" x2="3" y2="1.1" layer="51" rot="R180"/>
<rectangle x1="-2.85" y1="-1.55" x2="-1.9" y2="1.55" layer="51"/>
<wire x1="-3.01625" y1="1.27" x2="-3.01625" y2="1.74625" width="0.127" layer="21"/>
<wire x1="-3.01625" y1="1.74625" x2="-2" y2="1.74625" width="0.127" layer="21"/>
<wire x1="2" y1="1.74625" x2="3.01625" y2="1.74625" width="0.127" layer="21"/>
<wire x1="3.01625" y1="1.74625" x2="3.01625" y2="1.27" width="0.127" layer="21"/>
<wire x1="-3.01625" y1="-1.27" x2="-3.01625" y2="-1.74625" width="0.127" layer="21"/>
<wire x1="3.01625" y1="-1.74625" x2="3.01625" y2="-1.27" width="0.127" layer="21"/>
<wire x1="-1.11125" y1="0" x2="-0.47625" y2="0" width="0.127" layer="21"/>
<wire x1="-0.79375" y1="0.3175" x2="-0.79375" y2="-0.3175" width="0.127" layer="21"/>
<polygon width="0.127" layer="21">
<vertex x="-1.11125" y="-1.27"/>
<vertex x="-0.47625" y="-1.27"/>
<vertex x="-0.47625" y="-0.635"/>
<vertex x="-1.11125" y="-0.635"/>
</polygon>
<polygon width="0.127" layer="21">
<vertex x="-1.11125" y="0.635"/>
<vertex x="-0.47625" y="0.635"/>
<vertex x="-0.47625" y="1.27"/>
<vertex x="-1.11125" y="1.27"/>
</polygon>
<wire x1="-3.01625" y1="-1.75375" x2="-2" y2="-1.75375" width="0.127" layer="21"/>
<wire x1="2" y1="-1.75375" x2="3.01625" y2="-1.75375" width="0.127" layer="21"/>
</package>
</packages>
<symbols>
<symbol name="C_POL">
<wire x1="-0.381" y1="-1.524" x2="-0.381" y2="1.524" width="0.254" layer="94"/>
<wire x1="-0.381" y1="1.524" x2="-1.27" y2="1.524" width="0.254" layer="94"/>
<wire x1="-1.27" y1="-1.524" x2="-0.381" y2="-1.524" width="0.254" layer="94"/>
<wire x1="-1.27" y1="-1.524" x2="-1.27" y2="0" width="0.254" layer="94"/>
<wire x1="-1.27" y1="0" x2="-1.27" y2="1.524" width="0.254" layer="94"/>
<wire x1="-2.54" y1="0" x2="-1.27" y2="0" width="0.1524" layer="94"/>
<wire x1="2.54" y1="0" x2="1.27" y2="0" width="0.1524" layer="94"/>
<text x="0" y="-2.032" size="1.778" layer="94" rot="R180" align="bottom-center">&gt;NAME</text>
<text x="-1.6764" y="-0.5842" size="1.27" layer="94" rot="R180">+</text>
<text x="0" y="2.032" size="1.778" layer="96" align="bottom-center">&gt;VALUE</text>
<rectangle x1="-0.8255" y1="-0.4445" x2="2.4765" y2="0.4445" layer="94" rot="R90"/>
<pin name="-" x="2.54" y="0" visible="off" length="point" direction="pas" rot="R180"/>
<pin name="+" x="-2.54" y="0" visible="off" length="point" direction="pas"/>
</symbol>
</symbols>
<devicesets>
<deviceset name="?" prefix="C">
<gates>
<gate name="G$1" symbol="C_POL" x="0" y="0"/>
</gates>
<devices>
<device name="1U/50V(11MM)" package="E2-5">
<connects>
<connect gate="G$1" pin="+" pad="+"/>
<connect gate="G$1" pin="-" pad="-"/>
</connects>
<technologies>
<technology name="">
<attribute name="MOUSER" value="647-UKW1H010MDD" constant="no"/>
</technology>
</technologies>
</device>
<device name="10U/35V(11MM)" package="E2-5">
<connects>
<connect gate="G$1" pin="+" pad="+"/>
<connect gate="G$1" pin="-" pad="-"/>
</connects>
<technologies>
<technology name="">
<attribute name="MOUSER" value="75-515D106M035JA6AE3" constant="no"/>
</technology>
</technologies>
</device>
<device name="47U/16V(11MM)" package="E2-5">
<connects>
<connect gate="G$1" pin="+" pad="+"/>
<connect gate="G$1" pin="-" pad="-"/>
</connects>
<technologies>
<technology name="">
<attribute name="MOUSER" value="75-515D476M016JA6AE3" constant="no"/>
</technology>
</technologies>
</device>
<device name="47U/50V(11MM)" package="E2,5-7">
<connects>
<connect gate="G$1" pin="+" pad="+"/>
<connect gate="G$1" pin="-" pad="-"/>
</connects>
<technologies>
<technology name="">
<attribute name="MOUSER" value="647-UKT1H470MED" constant="no"/>
</technology>
</technologies>
</device>
<device name="100U/50V" package="E3,5-8">
<connects>
<connect gate="G$1" pin="+" pad="+"/>
<connect gate="G$1" pin="-" pad="-"/>
</connects>
<technologies>
<technology name="">
<attribute name="MOUSER" value="647-UKA1H101MPD" constant="no"/>
</technology>
</technologies>
</device>
<device name="100U/40V(AXIAL)" package="E25-9">
<connects>
<connect gate="G$1" pin="+" pad="+"/>
<connect gate="G$1" pin="-" pad="-"/>
</connects>
<technologies>
<technology name="">
<attribute name="MOUSER" value="594-2222-031-37101" constant="no"/>
</technology>
</technologies>
</device>
<device name="10U/35V" package="E2-5">
<connects>
<connect gate="G$1" pin="+" pad="+"/>
<connect gate="G$1" pin="-" pad="-"/>
</connects>
<technologies>
<technology name="">
<attribute name="MOUSER" value="647-USW1V100MDD" constant="no"/>
</technology>
</technologies>
</device>
<device name="1U/50V" package="E1,5-4">
<connects>
<connect gate="G$1" pin="+" pad="+"/>
<connect gate="G$1" pin="-" pad="-"/>
</connects>
<technologies>
<technology name="">
<attribute name="MOUSER" value="647-USW1H010MDD" constant="no"/>
</technology>
</technologies>
</device>
<device name="47U/35V" package="E3,5-8">
<connects>
<connect gate="G$1" pin="+" pad="+"/>
<connect gate="G$1" pin="-" pad="-"/>
</connects>
<technologies>
<technology name="">
<attribute name="MOUSER" value="647-USP1E470MDD" constant="no"/>
</technology>
</technologies>
</device>
<device name="47U/16V" package="E2-5">
<connects>
<connect gate="G$1" pin="+" pad="+"/>
<connect gate="G$1" pin="-" pad="-"/>
</connects>
<technologies>
<technology name="">
<attribute name="MOUSER" value="647-USW1C470MDD" constant="no"/>
</technology>
</technologies>
</device>
<device name="47U/25V(AXIAL)" package="E15-6">
<connects>
<connect gate="G$1" pin="+" pad="+"/>
<connect gate="G$1" pin="-" pad="-"/>
</connects>
<technologies>
<technology name="">
<attribute name="MOUSER" value="594-2222-030-36479" constant="no"/>
</technology>
</technologies>
</device>
<device name="10U/35V(TA)" package="SMC_C">
<connects>
<connect gate="G$1" pin="+" pad="+"/>
<connect gate="G$1" pin="-" pad="-"/>
</connects>
<technologies>
<technology name="">
<attribute name="MOUSER" value="74-293D106X0035C2TE3" constant="no"/>
</technology>
</technologies>
</device>
<device name="39U/35V" package="E3,5-8">
<connects>
<connect gate="G$1" pin="+" pad="+"/>
<connect gate="G$1" pin="-" pad="-"/>
</connects>
<technologies>
<technology name="">
<attribute name="MOUSER" value="667-35SEPF39M" constant="no"/>
</technology>
</technologies>
</device>
<device name="33U/50V" package="E3,5-8">
<connects>
<connect gate="G$1" pin="+" pad="+"/>
<connect gate="G$1" pin="-" pad="-"/>
</connects>
<technologies>
<technology name="">
<attribute name="MOUSER" value="661-EKZE500ELL330MH0" constant="no"/>
</technology>
</technologies>
</device>
<device name="33U/25V" package="E2,5-7">
<connects>
<connect gate="G$1" pin="+" pad="+"/>
<connect gate="G$1" pin="-" pad="-"/>
</connects>
<technologies>
<technology name=""/>
</technologies>
</device>
</devices>
</deviceset>
<deviceset name="CAPACITOR_ELECTROLYTIC">
<gates>
<gate name="G$1" symbol="C_POL" x="0" y="0"/>
</gates>
<devices>
<device name="" package="E3,5-8">
<connects>
<connect gate="G$1" pin="+" pad="+"/>
<connect gate="G$1" pin="-" pad="-"/>
</connects>
<technologies>
<technology name=""/>
</technologies>
</device>
</devices>
</deviceset>
</devicesets>
</library>
</drawing>
</eagle>
