<!--This work is licensed under a Creative Commons Attribution-ShareAlike 4.0 International License (CC BY-SA) with Design Exception 1.0-->
<eagle version="7.1.0">
<drawing>
<settings>
<setting alwaysvectorfont="no"/>
<setting verticaltext="up"/>
</settings>
<grid distance="0.1" unitdist="inch" unit="inch" style="lines" multiple="1" display="no" altdistance="0.01" altunitdist="inch" altunit="inch"/>
<layers>
<layer number="1" name="Top" color="4" fill="1" visible="yes" active="yes"/>
<layer number="16" name="Bottom" color="1" fill="1" visible="yes" active="yes"/>
<layer number="17" name="Pads" color="2" fill="1" visible="yes" active="yes"/>
<layer number="18" name="Vias" color="2" fill="1" visible="yes" active="yes"/>
<layer number="19" name="Unrouted" color="6" fill="1" visible="yes" active="yes"/>
<layer number="20" name="Dimension" color="15" fill="1" visible="yes" active="yes"/>
<layer number="21" name="tPlace" color="7" fill="1" visible="yes" active="yes"/>
<layer number="22" name="bPlace" color="7" fill="1" visible="yes" active="yes"/>
<layer number="23" name="tOrigins" color="15" fill="1" visible="yes" active="yes"/>
<layer number="24" name="bOrigins" color="15" fill="1" visible="yes" active="yes"/>
<layer number="25" name="tNames" color="7" fill="1" visible="yes" active="yes"/>
<layer number="26" name="bNames" color="7" fill="1" visible="yes" active="yes"/>
<layer number="27" name="tValues" color="7" fill="1" visible="yes" active="yes"/>
<layer number="28" name="bValues" color="7" fill="1" visible="yes" active="yes"/>
<layer number="29" name="tStop" color="7" fill="3" visible="yes" active="yes"/>
<layer number="30" name="bStop" color="7" fill="6" visible="no" active="yes"/>
<layer number="31" name="tCream" color="7" fill="4" visible="yes" active="yes"/>
<layer number="32" name="bCream" color="7" fill="5" visible="no" active="yes"/>
<layer number="33" name="tFinish" color="6" fill="3" visible="no" active="yes"/>
<layer number="34" name="bFinish" color="6" fill="6" visible="no" active="yes"/>
<layer number="35" name="tGlue" color="7" fill="4" visible="no" active="yes"/>
<layer number="36" name="bGlue" color="7" fill="5" visible="no" active="yes"/>
<layer number="37" name="tTest" color="7" fill="1" visible="no" active="yes"/>
<layer number="38" name="bTest" color="7" fill="1" visible="no" active="yes"/>
<layer number="39" name="tKeepout" color="4" fill="11" visible="yes" active="yes"/>
<layer number="40" name="bKeepout" color="1" fill="11" visible="yes" active="yes"/>
<layer number="41" name="tRestrict" color="4" fill="10" visible="yes" active="yes"/>
<layer number="42" name="bRestrict" color="1" fill="10" visible="yes" active="yes"/>
<layer number="43" name="vRestrict" color="2" fill="10" visible="yes" active="yes"/>
<layer number="44" name="Drills" color="7" fill="1" visible="no" active="yes"/>
<layer number="45" name="Holes" color="7" fill="1" visible="no" active="yes"/>
<layer number="46" name="Milling" color="3" fill="1" visible="no" active="yes"/>
<layer number="47" name="Measures" color="7" fill="1" visible="no" active="yes"/>
<layer number="48" name="Document" color="7" fill="1" visible="yes" active="yes"/>
<layer number="49" name="Reference" color="7" fill="1" visible="yes" active="yes"/>
<layer number="51" name="tDocu" color="7" fill="1" visible="yes" active="yes"/>
<layer number="52" name="bDocu" color="7" fill="1" visible="yes" active="yes"/>
<layer number="90" name="Modules" color="5" fill="1" visible="yes" active="yes"/>
<layer number="91" name="Nets" color="2" fill="1" visible="yes" active="yes"/>
<layer number="92" name="Busses" color="1" fill="1" visible="yes" active="yes"/>
<layer number="93" name="Pins" color="2" fill="1" visible="yes" active="yes"/>
<layer number="94" name="Symbols" color="4" fill="1" visible="yes" active="yes"/>
<layer number="95" name="Names" color="7" fill="1" visible="yes" active="yes"/>
<layer number="96" name="Values" color="7" fill="1" visible="yes" active="yes"/>
<layer number="97" name="Info" color="7" fill="1" visible="yes" active="yes"/>
<layer number="98" name="Guide" color="6" fill="1" visible="yes" active="yes"/>
</layers>
<library>
<packages>
<package name="SOT230P700X180-4N">
<circle x="-4.6" y="2.3" radius="0.1" width="0.2" layer="21"/>
<circle x="-4.6" y="2.3" radius="0.1" width="0.2" layer="51"/>
<wire x1="1.75" y1="3.25" x2="1.75" y2="-3.25" width="0.127" layer="51"/>
<wire x1="-1.75" y1="3.25" x2="-1.75" y2="-3.25" width="0.127" layer="51"/>
<wire x1="1.75" y1="3.25" x2="1.75" y2="2.01" width="0.127" layer="21"/>
<wire x1="1.75" y1="3.25" x2="-1.75" y2="3.25" width="0.127" layer="51"/>
<wire x1="1.75" y1="-3.25" x2="-1.75" y2="-3.25" width="0.127" layer="51"/>
<text x="-3.2" y="-3.73" size="1.27" layer="27" align="top-left">&gt;VALUE</text>
<text x="-3.2" y="4.119" size="1.27" layer="25">&gt;NAME</text>
<wire x1="-1.75" y1="3.25" x2="1.75" y2="3.25" width="0.127" layer="21"/>
<wire x1="1.75" y1="-3.25" x2="1.75" y2="-2.01" width="0.127" layer="21"/>
<wire x1="-1.75" y1="-3.25" x2="1.75" y2="-3.25" width="0.127" layer="21"/>
<wire x1="4.225" y1="1.875" x2="2" y2="1.875" width="0.05" layer="39"/>
<wire x1="2" y1="1.875" x2="2" y2="3.5" width="0.05" layer="39"/>
<wire x1="2" y1="3.5" x2="-2" y2="3.5" width="0.05" layer="39"/>
<wire x1="-2" y1="3.5" x2="-2" y2="3.025" width="0.05" layer="39"/>
<wire x1="-2" y1="3.025" x2="-4.225" y2="3.025" width="0.05" layer="39"/>
<wire x1="-4.225" y1="3.025" x2="-4.225" y2="-3.025" width="0.05" layer="39"/>
<wire x1="-4.225" y1="-3.025" x2="-2" y2="-3.025" width="0.05" layer="39"/>
<wire x1="-2" y1="-3.025" x2="-2" y2="-3.5" width="0.05" layer="39"/>
<wire x1="-2" y1="-3.5" x2="2" y2="-3.5" width="0.05" layer="39"/>
<wire x1="2" y1="-3.5" x2="2" y2="-1.875" width="0.05" layer="39"/>
<wire x1="2" y1="-1.875" x2="4.225" y2="-1.875" width="0.05" layer="39"/>
<wire x1="4.225" y1="-1.875" x2="4.225" y2="1.875" width="0.05" layer="39"/>
<smd name="1" x="-2.9" y="2.3" dx="0.95" dy="2.15" layer="1" rot="R270"/>
<smd name="2" x="-2.9" y="0" dx="0.95" dy="2.15" layer="1" rot="R270"/>
<smd name="3" x="-2.9" y="-2.3" dx="0.95" dy="2.15" layer="1" rot="R270"/>
<smd name="4" x="2.9" y="0" dx="3.25" dy="2.15" layer="1" rot="R270"/>
</package>
</packages>
<symbols>
<symbol name="LM2937IMP-10">
<wire x1="-12.7" y1="7.62" x2="12.7" y2="7.62" width="0.41" layer="94"/>
<wire x1="12.7" y1="7.62" x2="12.7" y2="-7.62" width="0.41" layer="94"/>
<wire x1="12.7" y1="-7.62" x2="-12.7" y2="-7.62" width="0.41" layer="94"/>
<wire x1="-12.7" y1="-7.62" x2="-12.7" y2="7.62" width="0.41" layer="94"/>
<text x="-12.7" y="8.62" size="2.0828" layer="95" ratio="10" rot="SR0">&gt;NAME</text>
<text x="-12.7" y="-11.62" size="2.0828" layer="96" ratio="10" rot="SR0">&gt;VALUE</text>
<pin name="VIN" x="-17.78" y="5.08" length="middle" direction="in"/>
<pin name="VOUT" x="17.78" y="5.08" length="middle" direction="out" rot="R180"/>
<pin name="GND_(TAB)" x="17.78" y="0" length="middle" direction="pwr" rot="R180"/>
<pin name="GND" x="17.78" y="-2.54" length="middle" direction="pwr" rot="R180"/>
</symbol>
</symbols>
<devicesets>
<deviceset name="LM2937IMP-10" prefix="U">
<description> &lt;a href="https://pricing.snapeda.com/parts/LM2937IMP-10/Texas%20Instruments/view-part?ref=eda"&gt;Check prices&lt;/a&gt;</description>
<gates>
<gate name="A" symbol="LM2937IMP-10" x="0" y="0"/>
</gates>
<devices>
<device name="" package="SOT230P700X180-4N">
<connects>
<connect gate="A" pin="GND" pad="2"/>
<connect gate="A" pin="GND_(TAB)" pad="4"/>
<connect gate="A" pin="VIN" pad="1"/>
<connect gate="A" pin="VOUT" pad="3"/>
</connects>
<technologies>
<technology name="">
<attribute name="MP" value="LM2937IMP-10"/>
<attribute name="Package" value="SOT-223-4 Texas Instruments"/>
<attribute name="Purchase-URL" value="https://pricing.snapeda.com/search/part/LM2937IMP-10/?ref=eda"/>
<attribute name="Availability" value="Bad"/>
<attribute name="Description" value="
500-mA, 26-V, high-PSRR, low-dropout voltage regulator 4-SOT-223 -40 to 85
"/>
<attribute name="MF" value="Texas Instruments"/>
<attribute name="Price" value="None"/>
</technology>
</technologies>
</device>
</devices>
</deviceset>
</devicesets>
</library>
</drawing>
</eagle>
