<!--This work is licensed under a Creative Commons Attribution-ShareAlike 4.0 International License (CC BY-SA) with Design Exception 1.0-->
<eagle version="7.1.0">
<drawing>
<settings>
<setting alwaysvectorfont="no"/>
<setting verticaltext="up"/>
</settings>
<grid distance="0.1" unitdist="inch" unit="inch" style="lines" multiple="1" display="no" altdistance="0.01" altunitdist="inch" altunit="inch"/>
<layers>
<layer number="1" name="Top" color="4" fill="1" visible="yes" active="yes"/>
<layer number="16" name="Bottom" color="1" fill="1" visible="yes" active="yes"/>
<layer number="17" name="Pads" color="2" fill="1" visible="yes" active="yes"/>
<layer number="18" name="Vias" color="2" fill="1" visible="yes" active="yes"/>
<layer number="19" name="Unrouted" color="6" fill="1" visible="yes" active="yes"/>
<layer number="20" name="Dimension" color="15" fill="1" visible="yes" active="yes"/>
<layer number="21" name="tPlace" color="7" fill="1" visible="yes" active="yes"/>
<layer number="22" name="bPlace" color="7" fill="1" visible="yes" active="yes"/>
<layer number="23" name="tOrigins" color="15" fill="1" visible="yes" active="yes"/>
<layer number="24" name="bOrigins" color="15" fill="1" visible="yes" active="yes"/>
<layer number="25" name="tNames" color="7" fill="1" visible="yes" active="yes"/>
<layer number="26" name="bNames" color="7" fill="1" visible="yes" active="yes"/>
<layer number="27" name="tValues" color="7" fill="1" visible="yes" active="yes"/>
<layer number="28" name="bValues" color="7" fill="1" visible="yes" active="yes"/>
<layer number="29" name="tStop" color="7" fill="3" visible="yes" active="yes"/>
<layer number="30" name="bStop" color="7" fill="6" visible="no" active="yes"/>
<layer number="31" name="tCream" color="7" fill="4" visible="yes" active="yes"/>
<layer number="32" name="bCream" color="7" fill="5" visible="no" active="yes"/>
<layer number="33" name="tFinish" color="6" fill="3" visible="no" active="yes"/>
<layer number="34" name="bFinish" color="6" fill="6" visible="no" active="yes"/>
<layer number="35" name="tGlue" color="7" fill="4" visible="no" active="yes"/>
<layer number="36" name="bGlue" color="7" fill="5" visible="no" active="yes"/>
<layer number="37" name="tTest" color="7" fill="1" visible="no" active="yes"/>
<layer number="38" name="bTest" color="7" fill="1" visible="no" active="yes"/>
<layer number="39" name="tKeepout" color="4" fill="11" visible="yes" active="yes"/>
<layer number="40" name="bKeepout" color="1" fill="11" visible="yes" active="yes"/>
<layer number="41" name="tRestrict" color="4" fill="10" visible="yes" active="yes"/>
<layer number="42" name="bRestrict" color="1" fill="10" visible="yes" active="yes"/>
<layer number="43" name="vRestrict" color="2" fill="10" visible="yes" active="yes"/>
<layer number="44" name="Drills" color="7" fill="1" visible="no" active="yes"/>
<layer number="45" name="Holes" color="7" fill="1" visible="no" active="yes"/>
<layer number="46" name="Milling" color="3" fill="1" visible="no" active="yes"/>
<layer number="47" name="Measures" color="7" fill="1" visible="no" active="yes"/>
<layer number="48" name="Document" color="7" fill="1" visible="yes" active="yes"/>
<layer number="49" name="Reference" color="7" fill="1" visible="yes" active="yes"/>
<layer number="51" name="tDocu" color="7" fill="1" visible="yes" active="yes"/>
<layer number="52" name="bDocu" color="7" fill="1" visible="yes" active="yes"/>
<layer number="90" name="Modules" color="5" fill="1" visible="yes" active="yes"/>
<layer number="91" name="Nets" color="2" fill="1" visible="yes" active="yes"/>
<layer number="92" name="Busses" color="1" fill="1" visible="yes" active="yes"/>
<layer number="93" name="Pins" color="2" fill="1" visible="yes" active="yes"/>
<layer number="94" name="Symbols" color="4" fill="1" visible="yes" active="yes"/>
<layer number="95" name="Names" color="7" fill="1" visible="yes" active="yes"/>
<layer number="96" name="Values" color="7" fill="1" visible="yes" active="yes"/>
<layer number="97" name="Info" color="7" fill="1" visible="yes" active="yes"/>
<layer number="98" name="Guide" color="6" fill="1" visible="yes" active="yes"/>
</layers>
<library>
<packages>
<package name="RESAD640W45L370D200">
<wire x1="-2.1" y1="-0.8" x2="-4" y2="-0.8" width="0.05" layer="39"/>
<wire x1="-4" y1="-0.8" x2="-4" y2="0.8" width="0.05" layer="39"/>
<wire x1="-4" y1="0.8" x2="-2.1" y2="0.8" width="0.05" layer="39"/>
<wire x1="-2.1" y1="0.8" x2="-2.1" y2="1.25" width="0.05" layer="39"/>
<wire x1="-2.1" y1="1.25" x2="2.1" y2="1.25" width="0.05" layer="39"/>
<wire x1="2.1" y1="1.25" x2="2.1" y2="0.8" width="0.05" layer="39"/>
<wire x1="2.1" y1="0.8" x2="4" y2="0.8" width="0.05" layer="39"/>
<wire x1="4" y1="0.8" x2="4" y2="-0.8" width="0.05" layer="39"/>
<wire x1="4" y1="-0.8" x2="2.1" y2="-0.8" width="0.05" layer="39"/>
<wire x1="2.1" y1="-0.8" x2="2.1" y2="-1.25" width="0.05" layer="39"/>
<wire x1="2.1" y1="-1.25" x2="-2.1" y2="-1.25" width="0.05" layer="39"/>
<wire x1="-2.1" y1="-1.25" x2="-2.1" y2="-0.8" width="0.05" layer="39"/>
<wire x1="-2.47" y1="0" x2="-1.85" y2="0" width="0.127" layer="21"/>
<wire x1="-1.85" y1="0" x2="-1.85" y2="1" width="0.127" layer="21"/>
<wire x1="-1.85" y1="1" x2="-1.23" y2="1" width="0.127" layer="21"/>
<wire x1="-1.85" y1="0" x2="-1.85" y2="-1" width="0.127" layer="21"/>
<wire x1="-1.85" y1="-1" x2="-1.23" y2="-1" width="0.127" layer="21"/>
<wire x1="2.47" y1="0" x2="1.85" y2="0" width="0.127" layer="21"/>
<wire x1="1.85" y1="0" x2="1.85" y2="1" width="0.127" layer="21"/>
<wire x1="1.85" y1="1" x2="1.23" y2="1" width="0.127" layer="21"/>
<wire x1="1.85" y1="0" x2="1.85" y2="-1" width="0.127" layer="21"/>
<wire x1="1.85" y1="-1" x2="1.23" y2="-1" width="0.127" layer="21"/>
<wire x1="-2.47" y1="0" x2="-1.85" y2="0" width="0.127" layer="51"/>
<wire x1="-1.85" y1="0" x2="-1.85" y2="1" width="0.127" layer="51"/>
<wire x1="-1.85" y1="1" x2="1.85" y2="1" width="0.127" layer="51"/>
<wire x1="-1.85" y1="0" x2="-1.85" y2="-1" width="0.127" layer="51"/>
<wire x1="-1.85" y1="-1" x2="1.85" y2="-1" width="0.127" layer="51"/>
<wire x1="2.47" y1="0" x2="1.85" y2="0" width="0.127" layer="51"/>
<wire x1="1.85" y1="0" x2="1.85" y2="1" width="0.127" layer="51"/>
<wire x1="1.85" y1="0" x2="1.85" y2="-1" width="0.127" layer="51"/>
<text x="0" y="2.54561" size="1.2728" layer="25" align="bottom-center">&gt;NAME</text>
<text x="0" y="-2.54619" size="1.27309" layer="27" align="top-center">&gt;VALUE</text>
<pad name="1" x="-3.2" y="0" drill="0.7" diameter="1.1"/>
<pad name="2" x="3.2" y="0" drill="0.7" diameter="1.1"/>
</package>
</packages>
<symbols>
<symbol name="LR0204F120R">
<wire x1="-2.54" y1="0" x2="-2.159" y2="1.016" width="0.2032" layer="94"/>
<wire x1="-2.159" y1="1.016" x2="-1.524" y2="-1.016" width="0.2032" layer="94"/>
<wire x1="-1.524" y1="-1.016" x2="-0.889" y2="1.016" width="0.2032" layer="94"/>
<wire x1="-0.889" y1="1.016" x2="-0.254" y2="-1.016" width="0.2032" layer="94"/>
<wire x1="-0.254" y1="-1.016" x2="0.381" y2="1.016" width="0.2032" layer="94"/>
<wire x1="0.381" y1="1.016" x2="1.016" y2="-1.016" width="0.2032" layer="94"/>
<wire x1="1.016" y1="-1.016" x2="1.651" y2="1.016" width="0.2032" layer="94"/>
<wire x1="1.651" y1="1.016" x2="2.286" y2="-1.016" width="0.2032" layer="94"/>
<wire x1="2.286" y1="-1.016" x2="2.54" y2="0" width="0.2032" layer="94"/>
<text x="-3.81305" y="1.4998" size="1.77942" layer="95">&gt;NAME</text>
<text x="-3.8174" y="-3.30841" size="1.78145" layer="96">&gt;VALUE</text>
<pin name="2" x="5.08" y="0" visible="off" length="short" direction="pas" swaplevel="1" rot="R180"/>
<pin name="1" x="-5.08" y="0" visible="off" length="short" direction="pas" swaplevel="1"/>
</symbol>
</symbols>
<devicesets>
<deviceset name="LR0204F120R" prefix="R">
<description>LR0204 1% 120R &lt;a href="https://pricing.snapeda.com/search/part/LR0204F120R/?ref=eda"&gt;Check prices&lt;/a&gt;</description>
<gates>
<gate name="G$1" symbol="LR0204F120R" x="0" y="0"/>
</gates>
<devices>
<device name="" package="RESAD640W45L370D200">
<connects>
<connect gate="G$1" pin="1" pad="1"/>
<connect gate="G$1" pin="2" pad="2"/>
</connects>
<technologies>
<technology name="">
<attribute name="Price" value="None"/>
<attribute name="MP" value="LR0204F120R"/>
<attribute name="Package" value="Axial TE Connectivity Passive Product"/>
<attribute name="Purchase-URL" value="https://pricing.snapeda.com/search/part/LR0204F120R/?ref=eda"/>
<attribute name="Comment" value="1614986-1"/>
<attribute name="Availability" value="Warning"/>
<attribute name="Description" value="
120 Ohms ±1% 0.25W, 1/4W Through Hole Resistor Axial Metal Film
"/>
<attribute name="MF" value="TE Connectivity"/>
</technology>
</technologies>
</device>
</devices>
</deviceset>
</devicesets>
</library>
</drawing>
</eagle>
