<!--This work is licensed under a Creative Commons Attribution-ShareAlike 4.0 International License (CC BY-SA) with Design Exception 1.0-->
<eagle version="7.1.0">
<drawing>
<settings>
<setting alwaysvectorfont="no"/>
<setting verticaltext="up"/>
</settings>
<grid distance="0.1" unitdist="inch" unit="inch" style="lines" multiple="1" display="no" altdistance="0.01" altunitdist="inch" altunit="inch"/>
<layers>
<layer number="1" name="Top" color="4" fill="1" visible="yes" active="yes"/>
<layer number="16" name="Bottom" color="1" fill="1" visible="yes" active="yes"/>
<layer number="17" name="Pads" color="2" fill="1" visible="yes" active="yes"/>
<layer number="18" name="Vias" color="2" fill="1" visible="yes" active="yes"/>
<layer number="19" name="Unrouted" color="6" fill="1" visible="yes" active="yes"/>
<layer number="20" name="Dimension" color="15" fill="1" visible="yes" active="yes"/>
<layer number="21" name="tPlace" color="7" fill="1" visible="yes" active="yes"/>
<layer number="22" name="bPlace" color="7" fill="1" visible="yes" active="yes"/>
<layer number="23" name="tOrigins" color="15" fill="1" visible="yes" active="yes"/>
<layer number="24" name="bOrigins" color="15" fill="1" visible="yes" active="yes"/>
<layer number="25" name="tNames" color="7" fill="1" visible="yes" active="yes"/>
<layer number="26" name="bNames" color="7" fill="1" visible="yes" active="yes"/>
<layer number="27" name="tValues" color="7" fill="1" visible="yes" active="yes"/>
<layer number="28" name="bValues" color="7" fill="1" visible="yes" active="yes"/>
<layer number="29" name="tStop" color="7" fill="3" visible="yes" active="yes"/>
<layer number="30" name="bStop" color="7" fill="6" visible="no" active="yes"/>
<layer number="31" name="tCream" color="7" fill="4" visible="yes" active="yes"/>
<layer number="32" name="bCream" color="7" fill="5" visible="no" active="yes"/>
<layer number="33" name="tFinish" color="6" fill="3" visible="no" active="yes"/>
<layer number="34" name="bFinish" color="6" fill="6" visible="no" active="yes"/>
<layer number="35" name="tGlue" color="7" fill="4" visible="no" active="yes"/>
<layer number="36" name="bGlue" color="7" fill="5" visible="no" active="yes"/>
<layer number="37" name="tTest" color="7" fill="1" visible="no" active="yes"/>
<layer number="38" name="bTest" color="7" fill="1" visible="no" active="yes"/>
<layer number="39" name="tKeepout" color="4" fill="11" visible="yes" active="yes"/>
<layer number="40" name="bKeepout" color="1" fill="11" visible="yes" active="yes"/>
<layer number="41" name="tRestrict" color="4" fill="10" visible="yes" active="yes"/>
<layer number="42" name="bRestrict" color="1" fill="10" visible="yes" active="yes"/>
<layer number="43" name="vRestrict" color="2" fill="10" visible="yes" active="yes"/>
<layer number="44" name="Drills" color="7" fill="1" visible="no" active="yes"/>
<layer number="45" name="Holes" color="7" fill="1" visible="no" active="yes"/>
<layer number="46" name="Milling" color="3" fill="1" visible="no" active="yes"/>
<layer number="47" name="Measures" color="7" fill="1" visible="no" active="yes"/>
<layer number="48" name="Document" color="7" fill="1" visible="yes" active="yes"/>
<layer number="49" name="Reference" color="7" fill="1" visible="yes" active="yes"/>
<layer number="51" name="tDocu" color="7" fill="1" visible="yes" active="yes"/>
<layer number="52" name="bDocu" color="7" fill="1" visible="yes" active="yes"/>
<layer number="90" name="Modules" color="5" fill="1" visible="yes" active="yes"/>
<layer number="91" name="Nets" color="2" fill="1" visible="yes" active="yes"/>
<layer number="92" name="Busses" color="1" fill="1" visible="yes" active="yes"/>
<layer number="93" name="Pins" color="2" fill="1" visible="yes" active="yes"/>
<layer number="94" name="Symbols" color="4" fill="1" visible="yes" active="yes"/>
<layer number="95" name="Names" color="7" fill="1" visible="yes" active="yes"/>
<layer number="96" name="Values" color="7" fill="1" visible="yes" active="yes"/>
<layer number="97" name="Info" color="7" fill="1" visible="yes" active="yes"/>
<layer number="98" name="Guide" color="6" fill="1" visible="yes" active="yes"/>
</layers>
<library>
<packages>
<package name="SOP65P640X120-20N">
<circle x="-4.19" y="2.925" radius="0.1" width="0.2" layer="21"/>
<circle x="-4.19" y="2.925" radius="0.1" width="0.2" layer="51"/>
<wire x1="-2.2" y1="3.25" x2="2.2" y2="3.25" width="0.127" layer="51"/>
<wire x1="-2.2" y1="-3.25" x2="2.2" y2="-3.25" width="0.127" layer="51"/>
<wire x1="-2.2" y1="3.45" x2="2.2" y2="3.45" width="0.127" layer="21"/>
<wire x1="-2.2" y1="-3.45" x2="2.2" y2="-3.45" width="0.127" layer="21"/>
<wire x1="-2.2" y1="3.25" x2="-2.2" y2="-3.25" width="0.127" layer="51"/>
<wire x1="2.2" y1="3.25" x2="2.2" y2="-3.25" width="0.127" layer="51"/>
<wire x1="-3.91" y1="3.55" x2="3.91" y2="3.55" width="0.05" layer="39"/>
<wire x1="-3.91" y1="-3.55" x2="3.91" y2="-3.55" width="0.05" layer="39"/>
<wire x1="-3.91" y1="3.55" x2="-3.91" y2="-3.55" width="0.05" layer="39"/>
<wire x1="3.91" y1="3.55" x2="3.91" y2="-3.55" width="0.05" layer="39"/>
<text x="-3.5" y="-3.75" size="1.27" layer="27" align="top-left">&gt;VALUE</text>
<text x="-3.5" y="3.75" size="1.27" layer="25">&gt;NAME</text>
<smd name="1" x="-2.87" y="2.925" dx="1.57" dy="0.41" layer="1" roundness="25"/>
<smd name="2" x="-2.87" y="2.275" dx="1.57" dy="0.41" layer="1" roundness="25"/>
<smd name="3" x="-2.87" y="1.625" dx="1.57" dy="0.41" layer="1" roundness="25"/>
<smd name="4" x="-2.87" y="0.975" dx="1.57" dy="0.41" layer="1" roundness="25"/>
<smd name="5" x="-2.87" y="0.325" dx="1.57" dy="0.41" layer="1" roundness="25"/>
<smd name="6" x="-2.87" y="-0.325" dx="1.57" dy="0.41" layer="1" roundness="25"/>
<smd name="7" x="-2.87" y="-0.975" dx="1.57" dy="0.41" layer="1" roundness="25"/>
<smd name="8" x="-2.87" y="-1.625" dx="1.57" dy="0.41" layer="1" roundness="25"/>
<smd name="9" x="-2.87" y="-2.275" dx="1.57" dy="0.41" layer="1" roundness="25"/>
<smd name="10" x="-2.87" y="-2.925" dx="1.57" dy="0.41" layer="1" roundness="25"/>
<smd name="11" x="2.87" y="-2.925" dx="1.57" dy="0.41" layer="1" roundness="25"/>
<smd name="12" x="2.87" y="-2.275" dx="1.57" dy="0.41" layer="1" roundness="25"/>
<smd name="13" x="2.87" y="-1.625" dx="1.57" dy="0.41" layer="1" roundness="25"/>
<smd name="14" x="2.87" y="-0.975" dx="1.57" dy="0.41" layer="1" roundness="25"/>
<smd name="15" x="2.87" y="-0.325" dx="1.57" dy="0.41" layer="1" roundness="25"/>
<smd name="16" x="2.87" y="0.325" dx="1.57" dy="0.41" layer="1" roundness="25"/>
<smd name="17" x="2.87" y="0.975" dx="1.57" dy="0.41" layer="1" roundness="25"/>
<smd name="18" x="2.87" y="1.625" dx="1.57" dy="0.41" layer="1" roundness="25"/>
<smd name="19" x="2.87" y="2.275" dx="1.57" dy="0.41" layer="1" roundness="25"/>
<smd name="20" x="2.87" y="2.925" dx="1.57" dy="0.41" layer="1" roundness="25"/>
</package>
</packages>
<symbols>
<symbol name="TXB0108PWR">
<wire x1="-12.7" y1="22.86" x2="12.7" y2="22.86" width="0.254" layer="94"/>
<wire x1="12.7" y1="22.86" x2="12.7" y2="-17.78" width="0.254" layer="94"/>
<wire x1="12.7" y1="-17.78" x2="-12.7" y2="-17.78" width="0.254" layer="94"/>
<wire x1="-12.7" y1="-17.78" x2="-12.7" y2="22.86" width="0.254" layer="94"/>
<text x="-12.7" y="23.86" size="2.0828" layer="95" ratio="10" rot="SR0">&gt;NAME</text>
<text x="-12.7" y="-21.78" size="2.0828" layer="96" ratio="10" rot="SR0">&gt;VALUE</text>
<pin name="A1" x="-17.78" y="7.62" length="middle"/>
<pin name="A2" x="-17.78" y="5.08" length="middle"/>
<pin name="A3" x="-17.78" y="2.54" length="middle"/>
<pin name="A4" x="-17.78" y="0" length="middle"/>
<pin name="B1" x="17.78" y="7.62" length="middle" rot="R180"/>
<pin name="B2" x="17.78" y="5.08" length="middle" rot="R180"/>
<pin name="B3" x="17.78" y="2.54" length="middle" rot="R180"/>
<pin name="B4" x="17.78" y="0" length="middle" rot="R180"/>
<pin name="OE" x="-17.78" y="12.7" length="middle" direction="in"/>
<pin name="VCCA" x="17.78" y="20.32" length="middle" direction="pwr" rot="R180"/>
<pin name="VCCB" x="17.78" y="17.78" length="middle" direction="pwr" rot="R180"/>
<pin name="A5" x="-17.78" y="-2.54" length="middle"/>
<pin name="A6" x="-17.78" y="-5.08" length="middle"/>
<pin name="A7" x="-17.78" y="-7.62" length="middle"/>
<pin name="A8" x="-17.78" y="-10.16" length="middle"/>
<pin name="B5" x="17.78" y="-2.54" length="middle" rot="R180"/>
<pin name="B6" x="17.78" y="-5.08" length="middle" rot="R180"/>
<pin name="B7" x="17.78" y="-7.62" length="middle" rot="R180"/>
<pin name="B8" x="17.78" y="-10.16" length="middle" rot="R180"/>
<pin name="GND" x="17.78" y="-15.24" length="middle" direction="pwr" rot="R180"/>
</symbol>
</symbols>
<devicesets>
<deviceset name="TXB0108PWR" prefix="U">
<description>8-Bit Bidirectional Voltage-Level Shifter with Auto Direction Sensing and +/-15-kV ESD Protect 20-TSSOP -40 to 85  &lt;a href="https://pricing.snapeda.com/parts/TXB0108PWR/Texas%20Instruments/view-part?ref=eda"&gt;Check prices&lt;/a&gt;</description>
<gates>
<gate name="G$1" symbol="TXB0108PWR" x="0" y="0"/>
</gates>
<devices>
<device name="" package="SOP65P640X120-20N">
<connects>
<connect gate="G$1" pin="A1" pad="1"/>
<connect gate="G$1" pin="A2" pad="3"/>
<connect gate="G$1" pin="A3" pad="4"/>
<connect gate="G$1" pin="A4" pad="5"/>
<connect gate="G$1" pin="A5" pad="6"/>
<connect gate="G$1" pin="A6" pad="7"/>
<connect gate="G$1" pin="A7" pad="8"/>
<connect gate="G$1" pin="A8" pad="9"/>
<connect gate="G$1" pin="B1" pad="20"/>
<connect gate="G$1" pin="B2" pad="18"/>
<connect gate="G$1" pin="B3" pad="17"/>
<connect gate="G$1" pin="B4" pad="16"/>
<connect gate="G$1" pin="B5" pad="15"/>
<connect gate="G$1" pin="B6" pad="14"/>
<connect gate="G$1" pin="B7" pad="13"/>
<connect gate="G$1" pin="B8" pad="12"/>
<connect gate="G$1" pin="GND" pad="11"/>
<connect gate="G$1" pin="OE" pad="10"/>
<connect gate="G$1" pin="VCCA" pad="2"/>
<connect gate="G$1" pin="VCCB" pad="19"/>
</connects>
<technologies>
<technology name="">
<attribute name="Price" value="None"/>
<attribute name="Package" value="TSSOP-20 Texas Instruments"/>
<attribute name="MF" value="Texas Instruments"/>
<attribute name="Availability" value="Good"/>
<attribute name="Description" value="
8-Bit Bidirectional Voltage-Level Shifter with Auto Direction Sensing and +/-15-kV ESD Protect 20-TSSOP -40 to 85
"/>
<attribute name="MP" value="TXB0108PWR"/>
<attribute name="Purchase-URL" value="https://pricing.snapeda.com/search/part/TXB0108PWR/?ref=eda"/>
</technology>
</technologies>
</device>
</devices>
</deviceset>
</devicesets>
</library>
</drawing>
</eagle>
