G04 EAGLE Gerber RS-274X export*
G75*
%MOMM*%
%FSLAX34Y34*%
%LPD*%
%INSolderpaste Top*%
%IPPOS*%
%AMOC8*
5,1,8,0,0,1.08239X$1,22.5*%
G01*
%ADD10R,1.300000X1.500000*%
%ADD11R,1.400000X1.200000*%
%ADD12C,0.550000*%
%ADD13R,0.550000X1.270000*%
%ADD14R,1.270000X0.550000*%
%ADD15R,1.600000X1.803000*%


D10*
X98700Y224800D03*
X117700Y224800D03*
X204400Y223700D03*
X185400Y223700D03*
X253800Y164800D03*
X272800Y164800D03*
X301300Y34800D03*
X282300Y34800D03*
D11*
X138000Y232500D03*
X138000Y216500D03*
X160000Y216500D03*
X160000Y232500D03*
D12*
X188600Y188926D02*
X188600Y181726D01*
D13*
X180600Y185326D03*
X172600Y185326D03*
X164600Y185326D03*
X156600Y185326D03*
X148600Y185326D03*
X140600Y185326D03*
X132600Y185326D03*
D14*
X117674Y170400D03*
X117674Y162400D03*
X117674Y154400D03*
X117674Y146400D03*
X117674Y138400D03*
X117674Y130400D03*
X117674Y122400D03*
X117674Y114400D03*
D13*
X132600Y99474D03*
X140600Y99474D03*
X148600Y99474D03*
X156600Y99474D03*
X164600Y99474D03*
X172600Y99474D03*
X180600Y99474D03*
X188600Y99474D03*
D14*
X203526Y114400D03*
X203526Y122400D03*
X203526Y130400D03*
X203526Y138400D03*
X203526Y146400D03*
X203526Y154400D03*
X203526Y162400D03*
X203526Y170400D03*
D15*
X211480Y84500D03*
X239920Y84500D03*
D10*
X233500Y34800D03*
X252500Y34800D03*
X184600Y53700D03*
X203600Y53700D03*
M02*
